<?xml version="1.0" encoding="UTF-8" standalone="no"?><svg xmlns="http://www.w3.org/2000/svg" xmlns:xlink="http://www.w3.org/1999/xlink" contentScriptType="application/ecmascript" contentStyleType="text/css" height="351px" preserveAspectRatio="none" style="width:390px;height:351px;" version="1.1" viewBox="0 0 390 351" width="390px" zoomAndPan="magnify"><defs><filter height="300%" id="f10wmfqgnl5w8p" width="300%" x="-1" y="-1"><feGaussianBlur result="blurOut" stdDeviation="2.0"/><feColorMatrix in="blurOut" result="blurOut2" type="matrix" values="0 0 0 0 0 0 0 0 0 0 0 0 0 0 0 0 0 0 .4 0"/><feOffset dx="4.0" dy="4.0" in="blurOut2" result="blurOut3"/><feBlend in="SourceGraphic" in2="blurOut3" mode="normal"/></filter></defs><g><!--MD5=[c66d0a82672abd1e3c40032ec61a2ded]
class fr.enac.sita.controbot.communication.IvyRxTx--><a href="IvyRxTx.html" target="_top" title="IvyRxTx.html" xlink:actuate="onRequest" xlink:href="IvyRxTx.html" xlink:show="new" xlink:title="IvyRxTx.html" xlink:type="simple"><rect fill="#FEFECE" filter="url(#f10wmfqgnl5w8p)" height="314.8359" id="fr.enac.sita.controbot.communication.IvyRxTx" style="stroke: #A80036; stroke-width: 1.5;" width="372" x="7" y="7"/><ellipse cx="98.25" cy="25.9688" fill="#ADD1B2" rx="11" ry="11" style="stroke: #A80036; stroke-width: 1.0;"/><path d="M101.2188,31.6094 Q100.6406,31.9063 100,32.0469 Q99.3594,32.2031 98.6563,32.2031 Q96.1563,32.2031 94.8281,30.5625 Q93.5156,28.9063 93.5156,25.7813 Q93.5156,22.6563 94.8281,21 Q96.1563,19.3438 98.6563,19.3438 Q99.3594,19.3438 100,19.5 Q100.6563,19.6563 101.2188,19.9531 L101.2188,22.6719 Q100.5938,22.0938 100,21.8281 Q99.4063,21.5469 98.7813,21.5469 Q97.4375,21.5469 96.75,22.625 Q96.0625,23.6875 96.0625,25.7813 Q96.0625,27.875 96.75,28.9531 Q97.4375,30.0156 98.7813,30.0156 Q99.4063,30.0156 100,29.75 Q100.5938,29.4688 101.2188,28.8906 L101.2188,31.6094 Z "/><text fill="#000000" font-family="sans-serif" font-size="14" lengthAdjust="spacingAndGlyphs" textLength="50" x="184.25" y="24.9951">IvyRxTx</text><text fill="#000000" font-family="sans-serif" font-size="10" lengthAdjust="spacingAndGlyphs" textLength="181" x="118.75" y="37.5791">fr.enac.sita.controbot.communication</text><line style="stroke: #A80036; stroke-width: 1.5;" x1="8" x2="378" y1="44.9375" y2="44.9375"/><ellipse cx="18" cy="55.9375" fill="#84BE84" rx="3" ry="3" style="stroke: #038048; stroke-width: 1.0;"/><text fill="#000000" font-family="sans-serif" font-size="11" lengthAdjust="spacingAndGlyphs" textLength="124" x="27" y="59.1479">IvyRxTx(String, String)</text><ellipse cx="18" cy="68.7422" fill="#84BE84" rx="3" ry="3" style="stroke: #038048; stroke-width: 1.0;"/><text fill="#000000" font-family="sans-serif" font-size="11" lengthAdjust="spacingAndGlyphs" textLength="223" x="27" y="71.9526">addMovedListener(MovedListener): void</text><ellipse cx="18" cy="81.5469" fill="#84BE84" rx="3" ry="3" style="stroke: #038048; stroke-width: 1.0;"/><text fill="#000000" font-family="sans-serif" font-size="11" lengthAdjust="spacingAndGlyphs" textLength="306" x="27" y="84.7573">addTrajectoryListener(String, TrajectoryListener): void</text><ellipse cx="18" cy="94.3516" fill="#84BE84" rx="3" ry="3" style="stroke: #038048; stroke-width: 1.0;"/><text fill="#000000" font-family="sans-serif" font-size="11" lengthAdjust="spacingAndGlyphs" textLength="225" x="27" y="97.562">addTargetListener(TargetListener): void</text><ellipse cx="18" cy="107.1563" fill="#84BE84" rx="3" ry="3" style="stroke: #038048; stroke-width: 1.0;"/><text fill="#000000" font-family="sans-serif" font-size="11" lengthAdjust="spacingAndGlyphs" textLength="327" x="27" y="110.3667">addActuatorListener(String, String, ActuatorListener): void</text><ellipse cx="18" cy="119.9609" fill="#84BE84" rx="3" ry="3" style="stroke: #038048; stroke-width: 1.0;"/><text fill="#000000" font-family="sans-serif" font-size="11" lengthAdjust="spacingAndGlyphs" textLength="111" x="27" y="123.1714">getPos(String): void</text><ellipse cx="18" cy="132.7656" fill="#84BE84" rx="3" ry="3" style="stroke: #038048; stroke-width: 1.0;"/><text fill="#000000" font-family="sans-serif" font-size="11" lengthAdjust="spacingAndGlyphs" textLength="283" x="27" y="135.9761">getActuators(String, List&lt;AbstractActuator&gt;): void</text><ellipse cx="18" cy="145.5703" fill="#84BE84" rx="3" ry="3" style="stroke: #038048; stroke-width: 1.0;"/><text fill="#000000" font-family="sans-serif" font-size="11" lengthAdjust="spacingAndGlyphs" textLength="157" x="27" y="148.7808">sendSpeed(String, int): void</text><ellipse cx="18" cy="158.375" fill="#84BE84" rx="3" ry="3" style="stroke: #038048; stroke-width: 1.0;"/><text fill="#000000" font-family="sans-serif" font-size="11" lengthAdjust="spacingAndGlyphs" textLength="203" x="27" y="161.5854">sendRotationSpeed(String, int): void</text><ellipse cx="18" cy="171.1797" fill="#84BE84" rx="3" ry="3" style="stroke: #038048; stroke-width: 1.0;"/><text fill="#000000" font-family="sans-serif" font-size="11" lengthAdjust="spacingAndGlyphs" textLength="187" x="27" y="174.3901">sendPosition(String, int, int): void</text><ellipse cx="18" cy="183.9844" fill="#84BE84" rx="3" ry="3" style="stroke: #038048; stroke-width: 1.0;"/><text fill="#000000" font-family="sans-serif" font-size="11" lengthAdjust="spacingAndGlyphs" textLength="153" x="27" y="187.1948">sendTheta(String, int): void</text><ellipse cx="18" cy="196.7891" fill="#84BE84" rx="3" ry="3" style="stroke: #038048; stroke-width: 1.0;"/><text fill="#000000" font-family="sans-serif" font-size="11" lengthAdjust="spacingAndGlyphs" textLength="330" x="27" y="199.9995">sendMotorCommand(String, String, Double, Boolean): void</text><ellipse cx="18" cy="209.5938" fill="#84BE84" rx="3" ry="3" style="stroke: #038048; stroke-width: 1.0;"/><text fill="#000000" font-family="sans-serif" font-size="11" lengthAdjust="spacingAndGlyphs" textLength="278" x="27" y="212.8042">sendServoCommand(String, String, Double): void</text><ellipse cx="18" cy="222.3984" fill="#84BE84" rx="3" ry="3" style="stroke: #038048; stroke-width: 1.0;"/><text fill="#000000" font-family="sans-serif" font-size="11" lengthAdjust="spacingAndGlyphs" textLength="277" x="27" y="225.6089">sendPumpCommand(String, String, Double): void</text><ellipse cx="18" cy="235.2031" fill="#84BE84" rx="3" ry="3" style="stroke: #038048; stroke-width: 1.0;"/><text fill="#000000" font-family="sans-serif" font-size="11" lengthAdjust="spacingAndGlyphs" textLength="250" x="27" y="238.4136">sendValveCommand(String, String, int): void</text><ellipse cx="18" cy="248.0078" fill="#84BE84" rx="3" ry="3" style="stroke: #038048; stroke-width: 1.0;"/><text fill="#000000" font-family="sans-serif" font-size="11" lengthAdjust="spacingAndGlyphs" textLength="346" x="27" y="251.2183">sendActionMessage(String, String, List&lt;String&gt;, String): void</text><ellipse cx="18" cy="260.8125" fill="#84BE84" rx="3" ry="3" style="stroke: #038048; stroke-width: 1.0;"/><text fill="#000000" font-family="sans-serif" font-size="11" lengthAdjust="spacingAndGlyphs" textLength="100" x="27" y="264.0229">getName(): String</text><ellipse cx="18" cy="273.6172" fill="#84BE84" rx="3" ry="3" style="stroke: #038048; stroke-width: 1.0;"/><text fill="#000000" font-family="sans-serif" font-size="11" lengthAdjust="spacingAndGlyphs" textLength="89" x="27" y="276.8276">getBus(): String</text><ellipse cx="18" cy="286.4219" fill="#84BE84" rx="3" ry="3" style="stroke: #038048; stroke-width: 1.0;"/><text fill="#000000" font-family="sans-serif" font-size="11" lengthAdjust="spacingAndGlyphs" textLength="85" x="27" y="289.6323">getBusIvy(): Ivy</text><ellipse cx="18" cy="299.2266" fill="#84BE84" rx="3" ry="3" style="stroke: #038048; stroke-width: 1.0;"/><text fill="#000000" font-family="sans-serif" font-size="11" lengthAdjust="spacingAndGlyphs" textLength="123" x="27" y="302.437">setName(String): void</text><ellipse cx="18" cy="312.0313" fill="#84BE84" rx="3" ry="3" style="stroke: #038048; stroke-width: 1.0;"/><text fill="#000000" font-family="sans-serif" font-size="11" lengthAdjust="spacingAndGlyphs" textLength="63" x="27" y="315.2417">stop(): void</text></a><text fill="#888888" font-family="sans-serif" font-size="10" lengthAdjust="spacingAndGlyphs" textLength="186" x="100" y="338.1182">UMLDoclet 2.0.9, PlantUML 1.2020.08</text><!--MD5=[3aef8357b88dc079d75e3656576a9d2d]
@startuml
    set namespaceSeparator none
    hide empty fields
    hide empty methods

    class "<size:14>IvyRxTx\n<size:10>fr.enac.sita.controbot.communication" as fr.enac.sita.controbot.communication.IvyRxTx [[IvyRxTx.html]] {
        +IvyRxTx(String, String)
        +addMovedListener(MovedListener): void
        +addTrajectoryListener(String, TrajectoryListener): void
        +addTargetListener(TargetListener): void
        +addActuatorListener(String, String, ActuatorListener): void
        +getPos(String): void
        +getActuators(String, List<AbstractActuator>): void
        +sendSpeed(String, int): void
        +sendRotationSpeed(String, int): void
        +sendPosition(String, int, int): void
        +sendTheta(String, int): void
        +sendMotorCommand(String, String, Double, Boolean): void
        +sendServoCommand(String, String, Double): void
        +sendPumpCommand(String, String, Double): void
        +sendValveCommand(String, String, int): void
        +sendActionMessage(String, String, List<String>, String): void
        +getName(): String
        +getBus(): String
        +getBusIvy(): Ivy
        +setName(String): void
        +stop(): void
    }

    center footer UMLDoclet 2.0.9, PlantUML 1.2020.08
@enduml

PlantUML version 1.2020.08(Sun Apr 26 16:08:22 CEST 2020)
(APACHE source distribution)
Java Runtime: OpenJDK Runtime Environment
JVM: OpenJDK 64-Bit Server VM
Java Version: 13.0.2+8
Operating System: Linux
Default Encoding: UTF-8
Language: fr
Country: FR
--></g></svg>