<?xml version="1.0" encoding="UTF-8" standalone="no"?><svg xmlns="http://www.w3.org/2000/svg" xmlns:xlink="http://www.w3.org/1999/xlink" contentScriptType="application/ecmascript" contentStyleType="text/css" height="95px" preserveAspectRatio="none" style="width:375px;height:95px;" version="1.1" viewBox="0 0 375 95" width="375px" zoomAndPan="magnify"><defs><filter height="300%" id="f1wj30yrix9cwc" width="300%" x="-1" y="-1"><feGaussianBlur result="blurOut" stdDeviation="2.0"/><feColorMatrix in="blurOut" result="blurOut2" type="matrix" values="0 0 0 0 0 0 0 0 0 0 0 0 0 0 0 0 0 0 .4 0"/><feOffset dx="4.0" dy="4.0" in="blurOut2" result="blurOut3"/><feBlend in="SourceGraphic" in2="blurOut3" mode="normal"/></filter></defs><g><!--MD5=[43320b51eca4de3c0c137f7a74c16db7]
class fr.enac.sita.controbot.communication.TargetListener--><a href="TargetListener.html" target="_top" title="TargetListener.html" xlink:actuate="onRequest" xlink:href="TargetListener.html" xlink:show="new" xlink:title="TargetListener.html" xlink:type="simple"><rect fill="#FEFECE" filter="url(#f1wj30yrix9cwc)" height="58.7422" id="fr.enac.sita.controbot.communication.TargetListener" style="stroke: #A80036; stroke-width: 1.5;" width="357" x="7" y="7"/><ellipse cx="87.25" cy="25.9688" fill="#B4A7E5" rx="11" ry="11" style="stroke: #A80036; stroke-width: 1.0;"/><path d="M83.1719,21.7344 L83.1719,19.5781 L90.5625,19.5781 L90.5625,21.7344 L88.0938,21.7344 L88.0938,29.8125 L90.5625,29.8125 L90.5625,31.9688 L83.1719,31.9688 L83.1719,29.8125 L85.6406,29.8125 L85.6406,21.7344 L83.1719,21.7344 Z "/><text fill="#000000" font-family="sans-serif" font-size="14" font-style="italic" lengthAdjust="spacingAndGlyphs" textLength="102" x="150.75" y="24.9951">TargetListener</text><text fill="#000000" font-family="sans-serif" font-size="10" font-style="italic" lengthAdjust="spacingAndGlyphs" textLength="188" x="107.75" y="37.5791">fr.enac.sita.controbot.communication</text><line style="stroke: #A80036; stroke-width: 1.5;" x1="8" x2="363" y1="44.9375" y2="44.9375"/><ellipse cx="18" cy="55.9375" fill="#84BE84" rx="3" ry="3" style="stroke: #038048; stroke-width: 1.0;"/><text fill="#000000" font-family="sans-serif" font-size="11" font-style="italic" lengthAdjust="spacingAndGlyphs" textLength="331" x="27" y="59.1479">onMyTargetEvent(String, String, String, String, String): void</text></a><text fill="#888888" font-family="sans-serif" font-size="10" lengthAdjust="spacingAndGlyphs" textLength="186" x="92.5" y="82.0244">UMLDoclet 2.0.9, PlantUML 1.2020.08</text><!--MD5=[77fc25c91fb14f5f36ae27e459af69ee]
@startuml
    set namespaceSeparator none
    hide empty fields
    hide empty methods

    interface "<size:14>TargetListener\n<size:10>fr.enac.sita.controbot.communication" as fr.enac.sita.controbot.communication.TargetListener [[TargetListener.html]] {
        {abstract} +onMyTargetEvent(String, String, String, String, String): void
    }

    center footer UMLDoclet 2.0.9, PlantUML 1.2020.08
@enduml

PlantUML version 1.2020.08(Sun Apr 26 16:08:22 CEST 2020)
(APACHE source distribution)
Java Runtime: OpenJDK Runtime Environment
JVM: OpenJDK 64-Bit Server VM
Java Version: 13.0.2+8
Operating System: Linux
Default Encoding: UTF-8
Language: fr
Country: FR
--></g></svg>