<?xml version="1.0" encoding="UTF-8" standalone="no"?><svg xmlns="http://www.w3.org/2000/svg" xmlns:xlink="http://www.w3.org/1999/xlink" contentScriptType="application/ecmascript" contentStyleType="text/css" height="172px" preserveAspectRatio="none" style="width:249px;height:172px;" version="1.1" viewBox="0 0 249 172" width="249px" zoomAndPan="magnify"><defs><filter height="300%" id="f7piwgvjcvey8" width="300%" x="-1" y="-1"><feGaussianBlur result="blurOut" stdDeviation="2.0"/><feColorMatrix in="blurOut" result="blurOut2" type="matrix" values="0 0 0 0 0 0 0 0 0 0 0 0 0 0 0 0 0 0 .4 0"/><feOffset dx="4.0" dy="4.0" in="blurOut2" result="blurOut3"/><feBlend in="SourceGraphic" in2="blurOut3" mode="normal"/></filter></defs><g><!--MD5=[5813c08cecef1db77a9936bd110954f6]
class fr.enac.sita.controbot.view.ConverterTable2Ground--><a href="ConverterTable2Ground.html" target="_top" title="ConverterTable2Ground.html" xlink:actuate="onRequest" xlink:href="ConverterTable2Ground.html" xlink:show="new" xlink:title="ConverterTable2Ground.html" xlink:type="simple"><rect fill="#FEFECE" filter="url(#f7piwgvjcvey8)" height="135.5703" id="fr.enac.sita.controbot.view.ConverterTable2Ground" style="stroke: #A80036; stroke-width: 1.5;" width="231" x="7" y="7"/><ellipse cx="36.4" cy="25.9688" fill="#ADD1B2" rx="11" ry="11" style="stroke: #A80036; stroke-width: 1.0;"/><path d="M39.3688,31.6094 Q38.7906,31.9063 38.15,32.0469 Q37.5094,32.2031 36.8063,32.2031 Q34.3063,32.2031 32.9781,30.5625 Q31.6656,28.9063 31.6656,25.7813 Q31.6656,22.6563 32.9781,21 Q34.3063,19.3438 36.8063,19.3438 Q37.5094,19.3438 38.15,19.5 Q38.8063,19.6563 39.3688,19.9531 L39.3688,22.6719 Q38.7438,22.0938 38.15,21.8281 Q37.5563,21.5469 36.9313,21.5469 Q35.5875,21.5469 34.9,22.625 Q34.2125,23.6875 34.2125,25.7813 Q34.2125,27.875 34.9,28.9531 Q35.5875,30.0156 36.9313,30.0156 Q37.5563,30.0156 38.15,29.75 Q38.7438,29.4688 39.3688,28.8906 L39.3688,31.6094 Z "/><text fill="#000000" font-family="sans-serif" font-size="14" lengthAdjust="spacingAndGlyphs" textLength="167" x="53.6" y="24.9951">ConverterTable2Ground</text><text fill="#000000" font-family="sans-serif" font-size="10" lengthAdjust="spacingAndGlyphs" textLength="129" x="72.6" y="37.5791">fr.enac.sita.controbot.view</text><line style="stroke: #A80036; stroke-width: 1.5;" x1="8" x2="237" y1="44.9375" y2="44.9375"/><ellipse cx="18" cy="55.9375" fill="#84BE84" rx="3" ry="3" style="stroke: #038048; stroke-width: 1.0;"/><text fill="#000000" font-family="sans-serif" font-size="11" lengthAdjust="spacingAndGlyphs" textLength="179" x="27" y="59.1479">convert(Table, ImageView): void</text><ellipse cx="18" cy="68.7422" fill="#84BE84" rx="3" ry="3" style="stroke: #038048; stroke-width: 1.0;"/><text fill="#000000" font-family="sans-serif" font-size="11" lengthAdjust="spacingAndGlyphs" textLength="198" x="27" y="71.9526">table2GroundWidth(double): double</text><ellipse cx="18" cy="81.5469" fill="#84BE84" rx="3" ry="3" style="stroke: #038048; stroke-width: 1.0;"/><text fill="#000000" font-family="sans-serif" font-size="11" lengthAdjust="spacingAndGlyphs" textLength="204" x="27" y="84.7573">table2GroundHeight(double): double</text><ellipse cx="18" cy="94.3516" fill="#84BE84" rx="3" ry="3" style="stroke: #038048; stroke-width: 1.0;"/><text fill="#000000" font-family="sans-serif" font-size="11" lengthAdjust="spacingAndGlyphs" textLength="199" x="27" y="97.562">ground2TableWidth(double): double</text><ellipse cx="18" cy="107.1563" fill="#84BE84" rx="3" ry="3" style="stroke: #038048; stroke-width: 1.0;"/><text fill="#000000" font-family="sans-serif" font-size="11" lengthAdjust="spacingAndGlyphs" textLength="205" x="27" y="110.3667">ground2TableHeight(double): double</text><ellipse cx="18" cy="119.9609" fill="#84BE84" rx="3" ry="3" style="stroke: #038048; stroke-width: 1.0;"/><text fill="#000000" font-family="sans-serif" font-size="11" lengthAdjust="spacingAndGlyphs" textLength="113" x="27" y="123.1714">getOffsetX(): double</text><ellipse cx="18" cy="132.7656" fill="#84BE84" rx="3" ry="3" style="stroke: #038048; stroke-width: 1.0;"/><text fill="#000000" font-family="sans-serif" font-size="11" lengthAdjust="spacingAndGlyphs" textLength="113" x="27" y="135.9761">getOffsetY(): double</text></a><text fill="#888888" font-family="sans-serif" font-size="10" lengthAdjust="spacingAndGlyphs" textLength="186" x="29.5" y="158.8525">UMLDoclet 2.0.9, PlantUML 1.2020.08</text><!--MD5=[a3fdb78cb3344eaf50441b824127e5aa]
@startuml
    set namespaceSeparator none
    hide empty fields
    hide empty methods

    class "<size:14>ConverterTable2Ground\n<size:10>fr.enac.sita.controbot.view" as fr.enac.sita.controbot.view.ConverterTable2Ground [[ConverterTable2Ground.html]] {
        +convert(Table, ImageView): void
        +table2GroundWidth(double): double
        +table2GroundHeight(double): double
        +ground2TableWidth(double): double
        +ground2TableHeight(double): double
        +getOffsetX(): double
        +getOffsetY(): double
    }

    center footer UMLDoclet 2.0.9, PlantUML 1.2020.08
@enduml

PlantUML version 1.2020.08(Sun Apr 26 16:08:22 CEST 2020)
(APACHE source distribution)
Java Runtime: OpenJDK Runtime Environment
JVM: OpenJDK 64-Bit Server VM
Java Version: 13.0.2+8
Operating System: Linux
Default Encoding: UTF-8
Language: fr
Country: FR
--></g></svg>