<?xml version="1.0" encoding="UTF-8" standalone="no"?><svg xmlns="http://www.w3.org/2000/svg" xmlns:xlink="http://www.w3.org/1999/xlink" contentScriptType="application/ecmascript" contentStyleType="text/css" height="133px" preserveAspectRatio="none" style="width:464px;height:133px;" version="1.1" viewBox="0 0 464 133" width="464px" zoomAndPan="magnify"><defs><filter height="300%" id="f65k1ouny4cd4" width="300%" x="-1" y="-1"><feGaussianBlur result="blurOut" stdDeviation="2.0"/><feColorMatrix in="blurOut" result="blurOut2" type="matrix" values="0 0 0 0 0 0 0 0 0 0 0 0 0 0 0 0 0 0 .4 0"/><feOffset dx="4.0" dy="4.0" in="blurOut2" result="blurOut3"/><feBlend in="SourceGraphic" in2="blurOut3" mode="normal"/></filter></defs><g><!--MD5=[90ad8bc4c58d075a667ac1537c06f811]
class fr.enac.sita.controbot.view.Drawer--><a href="Drawer.html" target="_top" title="Drawer.html" xlink:actuate="onRequest" xlink:href="Drawer.html" xlink:show="new" xlink:title="Drawer.html" xlink:type="simple"><rect fill="#FEFECE" filter="url(#f65k1ouny4cd4)" height="97.1563" id="fr.enac.sita.controbot.view.Drawer" style="stroke: #A80036; stroke-width: 1.5;" width="446" x="7" y="7"/><ellipse cx="161.25" cy="25.9688" fill="#ADD1B2" rx="11" ry="11" style="stroke: #A80036; stroke-width: 1.0;"/><path d="M164.2188,31.6094 Q163.6406,31.9063 163,32.0469 Q162.3594,32.2031 161.6563,32.2031 Q159.1563,32.2031 157.8281,30.5625 Q156.5156,28.9063 156.5156,25.7813 Q156.5156,22.6563 157.8281,21 Q159.1563,19.3438 161.6563,19.3438 Q162.3594,19.3438 163,19.5 Q163.6563,19.6563 164.2188,19.9531 L164.2188,22.6719 Q163.5938,22.0938 163,21.8281 Q162.4063,21.5469 161.7813,21.5469 Q160.4375,21.5469 159.75,22.625 Q159.0625,23.6875 159.0625,25.7813 Q159.0625,27.875 159.75,28.9531 Q160.4375,30.0156 161.7813,30.0156 Q162.4063,30.0156 163,29.75 Q163.5938,29.4688 164.2188,28.8906 L164.2188,31.6094 Z "/><text fill="#000000" font-family="sans-serif" font-size="14" lengthAdjust="spacingAndGlyphs" textLength="49" x="221.75" y="24.9951">Drawer</text><text fill="#000000" font-family="sans-serif" font-size="10" lengthAdjust="spacingAndGlyphs" textLength="129" x="181.75" y="37.5791">fr.enac.sita.controbot.view</text><line style="stroke: #A80036; stroke-width: 1.5;" x1="8" x2="452" y1="44.9375" y2="44.9375"/><ellipse cx="18" cy="55.9375" fill="#84BE84" rx="3" ry="3" style="stroke: #038048; stroke-width: 1.0;"/><text fill="#000000" font-family="sans-serif" font-size="11" lengthAdjust="spacingAndGlyphs" text-decoration="underline" textLength="420" x="27" y="59.1479">drawObstaclesInit(Obstacle[], Pane, Table, ImageView): ArrayList&lt;Shape&gt;</text><ellipse cx="18" cy="68.7422" fill="#84BE84" rx="3" ry="3" style="stroke: #038048; stroke-width: 1.0;"/><text fill="#000000" font-family="sans-serif" font-size="11" lengthAdjust="spacingAndGlyphs" text-decoration="underline" textLength="398" x="27" y="71.9526">drawObstacles(Obstacle[], ArrayList&lt;Shape&gt;, Table, ImageView): void</text><ellipse cx="18" cy="81.5469" fill="#84BE84" rx="3" ry="3" style="stroke: #038048; stroke-width: 1.0;"/><text fill="#000000" font-family="sans-serif" font-size="11" lengthAdjust="spacingAndGlyphs" text-decoration="underline" textLength="397" x="27" y="84.7573">drawRobot(String, Hashtable&lt;String, Shape&gt;, Table, ImageView): void</text><ellipse cx="18" cy="94.3516" fill="#84BE84" rx="3" ry="3" style="stroke: #038048; stroke-width: 1.0;"/><text fill="#000000" font-family="sans-serif" font-size="11" lengthAdjust="spacingAndGlyphs" text-decoration="underline" textLength="293" x="27" y="97.562">drawTrajectory(Table, String, Line, ImageView): void</text></a><text fill="#888888" font-family="sans-serif" font-size="10" lengthAdjust="spacingAndGlyphs" textLength="186" x="137" y="120.4385">UMLDoclet 2.0.9, PlantUML 1.2020.08</text><!--MD5=[8c2db447419af9b287679742ea173b2e]
@startuml
    set namespaceSeparator none
    hide empty fields
    hide empty methods

    class "<size:14>Drawer\n<size:10>fr.enac.sita.controbot.view" as fr.enac.sita.controbot.view.Drawer [[Drawer.html]] {
        {static} +drawObstaclesInit(Obstacle[], Pane, Table, ImageView): ArrayList<Shape>
        {static} +drawObstacles(Obstacle[], ArrayList<Shape>, Table, ImageView): void
        {static} +drawRobot(String, Hashtable<String, Shape>, Table, ImageView): void
        {static} +drawTrajectory(Table, String, Line, ImageView): void
    }

    center footer UMLDoclet 2.0.9, PlantUML 1.2020.08
@enduml

PlantUML version 1.2020.08(Sun Apr 26 16:08:22 CEST 2020)
(APACHE source distribution)
Java Runtime: OpenJDK Runtime Environment
JVM: OpenJDK 64-Bit Server VM
Java Version: 13.0.2+8
Operating System: Linux
Default Encoding: UTF-8
Language: fr
Country: FR
--></g></svg>