<?xml version="1.0" encoding="UTF-8" standalone="no"?><svg xmlns="http://www.w3.org/2000/svg" xmlns:xlink="http://www.w3.org/1999/xlink" contentScriptType="application/ecmascript" contentStyleType="text/css" height="657px" preserveAspectRatio="none" style="width:1502px;height:657px;" version="1.1" viewBox="0 0 1502 657" width="1502px" zoomAndPan="magnify"><defs><filter height="300%" id="f2s6dr1iotj7o" width="300%" x="-1" y="-1"><feGaussianBlur result="blurOut" stdDeviation="2.0"/><feColorMatrix in="blurOut" result="blurOut2" type="matrix" values="0 0 0 0 0 0 0 0 0 0 0 0 0 0 0 0 0 0 .4 0"/><feOffset dx="4.0" dy="4.0" in="blurOut2" result="blurOut3"/><feBlend in="SourceGraphic" in2="blurOut3" mode="normal"/></filter></defs><g><!--MD5=[0a2dbe124902f0784bfbc59c879eed91]
cluster fr.enac.sita.controbot.view--><polygon fill="#FFFFFF" filter="url(#f2s6dr1iotj7o)" points="22,185,242,185,249,207.2969,1480,207.2969,1480,609,22,609,22,185" style="stroke: #000000; stroke-width: 1.5;"/><line style="stroke: #000000; stroke-width: 1.5;" x1="22" x2="249" y1="207.2969" y2="207.2969"/><text fill="#000000" font-family="sans-serif" font-size="14" font-weight="bold" lengthAdjust="spacingAndGlyphs" textLength="214" x="26" y="199.9951">fr.enac.sita.controbot.view</text><!--MD5=[315bf7c36bcdbdaee5bb7549ab6e8767]
cluster javafx.application--><polygon fill="#FFFFFF" filter="url(#f2s6dr1iotj7o)" points="74,24,216,24,223,46.2969,300,46.2969,300,161,74,161,74,24" style="stroke: #000000; stroke-width: 1.5;"/><line style="stroke: #000000; stroke-width: 1.5;" x1="74" x2="223" y1="46.2969" y2="46.2969"/><text fill="#000000" font-family="sans-serif" font-size="14" font-weight="bold" lengthAdjust="spacingAndGlyphs" textLength="136" x="78" y="38.9951">javafx.application</text><!--MD5=[5813c08cecef1db77a9936bd110954f6]
class fr.enac.sita.controbot.view.ConverterTable2Ground--><a href="ConverterTable2Ground.html" target="_top" title="ConverterTable2Ground.html" xlink:actuate="onRequest" xlink:href="ConverterTable2Ground.html" xlink:show="new" xlink:title="ConverterTable2Ground.html" xlink:type="simple"><rect fill="#FEFECE" filter="url(#f2s6dr1iotj7o)" height="137.6328" id="fr.enac.sita.controbot.view.ConverterTable2Ground" style="stroke: #A80036; stroke-width: 1.5;" width="231" x="370.5" y="258"/><ellipse cx="408" cy="274" fill="#ADD1B2" rx="11" ry="11" style="stroke: #A80036; stroke-width: 1.0;"/><path d="M410.9688,279.6406 Q410.3906,279.9375 409.75,280.0781 Q409.1094,280.2344 408.4063,280.2344 Q405.9063,280.2344 404.5781,278.5938 Q403.2656,276.9375 403.2656,273.8125 Q403.2656,270.6875 404.5781,269.0313 Q405.9063,267.375 408.4063,267.375 Q409.1094,267.375 409.75,267.5313 Q410.4063,267.6875 410.9688,267.9844 L410.9688,270.7031 Q410.3438,270.125 409.75,269.8594 Q409.1563,269.5781 408.5313,269.5781 Q407.1875,269.5781 406.5,270.6563 Q405.8125,271.7188 405.8125,273.8125 Q405.8125,275.9063 406.5,276.9844 Q407.1875,278.0469 408.5313,278.0469 Q409.1563,278.0469 409.75,277.7813 Q410.3438,277.5 410.9688,276.9219 L410.9688,279.6406 Z "/><text fill="#000000" font-family="sans-serif" font-size="12" lengthAdjust="spacingAndGlyphs" textLength="149" x="427" y="278.1543">ConverterTable2Ground</text><line style="stroke: #A80036; stroke-width: 1.5;" x1="371.5" x2="600.5" y1="290" y2="290"/><line style="stroke: #A80036; stroke-width: 1.5;" x1="371.5" x2="600.5" y1="298" y2="298"/><ellipse cx="381.5" cy="309" fill="#84BE84" rx="3" ry="3" style="stroke: #038048; stroke-width: 1.0;"/><text fill="#000000" font-family="sans-serif" font-size="11" lengthAdjust="spacingAndGlyphs" textLength="179" x="390.5" y="312.2104">convert(Table, ImageView): void</text><ellipse cx="381.5" cy="321.8047" fill="#84BE84" rx="3" ry="3" style="stroke: #038048; stroke-width: 1.0;"/><text fill="#000000" font-family="sans-serif" font-size="11" lengthAdjust="spacingAndGlyphs" textLength="198" x="390.5" y="325.0151">table2GroundWidth(double): double</text><ellipse cx="381.5" cy="334.6094" fill="#84BE84" rx="3" ry="3" style="stroke: #038048; stroke-width: 1.0;"/><text fill="#000000" font-family="sans-serif" font-size="11" lengthAdjust="spacingAndGlyphs" textLength="204" x="390.5" y="337.8198">table2GroundHeight(double): double</text><ellipse cx="381.5" cy="347.4141" fill="#84BE84" rx="3" ry="3" style="stroke: #038048; stroke-width: 1.0;"/><text fill="#000000" font-family="sans-serif" font-size="11" lengthAdjust="spacingAndGlyphs" textLength="199" x="390.5" y="350.6245">ground2TableWidth(double): double</text><ellipse cx="381.5" cy="360.2188" fill="#84BE84" rx="3" ry="3" style="stroke: #038048; stroke-width: 1.0;"/><text fill="#000000" font-family="sans-serif" font-size="11" lengthAdjust="spacingAndGlyphs" textLength="205" x="390.5" y="363.4292">ground2TableHeight(double): double</text><ellipse cx="381.5" cy="373.0234" fill="#84BE84" rx="3" ry="3" style="stroke: #038048; stroke-width: 1.0;"/><text fill="#000000" font-family="sans-serif" font-size="11" lengthAdjust="spacingAndGlyphs" textLength="113" x="390.5" y="376.2339">getOffsetX(): double</text><ellipse cx="381.5" cy="385.8281" fill="#84BE84" rx="3" ry="3" style="stroke: #038048; stroke-width: 1.0;"/><text fill="#000000" font-family="sans-serif" font-size="11" lengthAdjust="spacingAndGlyphs" textLength="113" x="390.5" y="389.0386">getOffsetY(): double</text></a><!--MD5=[e255dce0a7788ccd53451a847eccaa9c]
class fr.enac.sita.controbot.view.Loader--><a href="Loader.html" target="_top" title="Loader.html" xlink:actuate="onRequest" xlink:href="Loader.html" xlink:show="new" xlink:title="Loader.html" xlink:type="simple"><rect fill="#FEFECE" filter="url(#f2s6dr1iotj7o)" height="112.0234" id="fr.enac.sita.controbot.view.Loader" style="stroke: #A80036; stroke-width: 1.5;" width="827" x="636.5" y="271"/><ellipse cx="1024.25" cy="287" fill="#ADD1B2" rx="11" ry="11" style="stroke: #A80036; stroke-width: 1.0;"/><path d="M1027.2188,292.6406 Q1026.6406,292.9375 1026,293.0781 Q1025.3594,293.2344 1024.6563,293.2344 Q1022.1563,293.2344 1020.8281,291.5938 Q1019.5156,289.9375 1019.5156,286.8125 Q1019.5156,283.6875 1020.8281,282.0313 Q1022.1563,280.375 1024.6563,280.375 Q1025.3594,280.375 1026,280.5313 Q1026.6563,280.6875 1027.2188,280.9844 L1027.2188,283.7031 Q1026.5938,283.125 1026,282.8594 Q1025.4063,282.5781 1024.7813,282.5781 Q1023.4375,282.5781 1022.75,283.6563 Q1022.0625,284.7188 1022.0625,286.8125 Q1022.0625,288.9063 1022.75,289.9844 Q1023.4375,291.0469 1024.7813,291.0469 Q1025.4063,291.0469 1026,290.7813 Q1026.5938,290.5 1027.2188,289.9219 L1027.2188,292.6406 Z "/><text fill="#000000" font-family="sans-serif" font-size="12" lengthAdjust="spacingAndGlyphs" textLength="43" x="1044.75" y="291.1543">Loader</text><line style="stroke: #A80036; stroke-width: 1.5;" x1="637.5" x2="1462.5" y1="303" y2="303"/><line style="stroke: #A80036; stroke-width: 1.5;" x1="637.5" x2="1462.5" y1="311" y2="311"/><ellipse cx="647.5" cy="322" fill="#84BE84" rx="3" ry="3" style="stroke: #038048; stroke-width: 1.0;"/><text fill="#000000" font-family="sans-serif" font-size="11" lengthAdjust="spacingAndGlyphs" text-decoration="underline" textLength="660" x="656.5" y="325.2104">loadRobot(Path, Pane, Accordion, Hashtable&lt;String, Shape&gt;, View, Table, ImageView, Hashtable&lt;String, Line&gt;): void</text><ellipse cx="647.5" cy="334.8047" fill="#84BE84" rx="3" ry="3" style="stroke: #038048; stroke-width: 1.0;"/><text fill="#000000" font-family="sans-serif" font-size="11" lengthAdjust="spacingAndGlyphs" text-decoration="underline" textLength="801" x="656.5" y="338.0151">initDrawRobot(Pane, Robot&lt;AbstractActuator&gt;, Accordion, Hashtable&lt;String, Shape&gt;, View, Table, ImageView, Hashtable&lt;String, Line&gt;): void</text><ellipse cx="647.5" cy="347.6094" fill="#84BE84" rx="3" ry="3" style="stroke: #038048; stroke-width: 1.0;"/><text fill="#000000" font-family="sans-serif" font-size="11" lengthAdjust="spacingAndGlyphs" text-decoration="underline" textLength="243" x="656.5" y="350.8198">loadSequence(Path, Table, Accordion): void</text><ellipse cx="647.5" cy="360.4141" fill="#84BE84" rx="3" ry="3" style="stroke: #038048; stroke-width: 1.0;"/><text fill="#000000" font-family="sans-serif" font-size="11" lengthAdjust="spacingAndGlyphs" text-decoration="underline" textLength="774" x="656.5" y="363.6245">loadConfig(FileChooser, Stage, Pane, Accordion, StackPane, View, Hashtable&lt;String, Shape&gt;, ImageView, Hashtable&lt;String, Line&gt;): void</text><ellipse cx="647.5" cy="373.2188" fill="#84BE84" rx="3" ry="3" style="stroke: #038048; stroke-width: 1.0;"/><text fill="#000000" font-family="sans-serif" font-size="11" lengthAdjust="spacingAndGlyphs" text-decoration="underline" textLength="475" x="656.5" y="376.4292">loadTable(Path, Pane, Accordion, View, ImageView, Hashtable&lt;String, Shape&gt;): void</text></a><!--MD5=[90ad8bc4c58d075a667ac1537c06f811]
class fr.enac.sita.controbot.view.Drawer--><a href="Drawer.html" target="_top" title="Drawer.html" xlink:actuate="onRequest" xlink:href="Drawer.html" xlink:show="new" xlink:title="Drawer.html" xlink:type="simple"><rect fill="#FEFECE" filter="url(#f2s6dr1iotj7o)" height="99.2188" id="fr.enac.sita.controbot.view.Drawer" style="stroke: #A80036; stroke-width: 1.5;" width="446" x="263" y="494"/><ellipse cx="459.75" cy="510" fill="#ADD1B2" rx="11" ry="11" style="stroke: #A80036; stroke-width: 1.0;"/><path d="M462.7188,515.6406 Q462.1406,515.9375 461.5,516.0781 Q460.8594,516.2344 460.1563,516.2344 Q457.6563,516.2344 456.3281,514.5938 Q455.0156,512.9375 455.0156,509.8125 Q455.0156,506.6875 456.3281,505.0313 Q457.6563,503.375 460.1563,503.375 Q460.8594,503.375 461.5,503.5313 Q462.1563,503.6875 462.7188,503.9844 L462.7188,506.7031 Q462.0938,506.125 461.5,505.8594 Q460.9063,505.5781 460.2813,505.5781 Q458.9375,505.5781 458.25,506.6563 Q457.5625,507.7188 457.5625,509.8125 Q457.5625,511.9063 458.25,512.9844 Q458.9375,514.0469 460.2813,514.0469 Q460.9063,514.0469 461.5,513.7813 Q462.0938,513.5 462.7188,512.9219 L462.7188,515.6406 Z "/><text fill="#000000" font-family="sans-serif" font-size="12" lengthAdjust="spacingAndGlyphs" textLength="44" x="480.25" y="514.1543">Drawer</text><line style="stroke: #A80036; stroke-width: 1.5;" x1="264" x2="708" y1="526" y2="526"/><line style="stroke: #A80036; stroke-width: 1.5;" x1="264" x2="708" y1="534" y2="534"/><ellipse cx="274" cy="545" fill="#84BE84" rx="3" ry="3" style="stroke: #038048; stroke-width: 1.0;"/><text fill="#000000" font-family="sans-serif" font-size="11" lengthAdjust="spacingAndGlyphs" text-decoration="underline" textLength="420" x="283" y="548.2104">drawObstaclesInit(Obstacle[], Pane, Table, ImageView): ArrayList&lt;Shape&gt;</text><ellipse cx="274" cy="557.8047" fill="#84BE84" rx="3" ry="3" style="stroke: #038048; stroke-width: 1.0;"/><text fill="#000000" font-family="sans-serif" font-size="11" lengthAdjust="spacingAndGlyphs" text-decoration="underline" textLength="398" x="283" y="561.0151">drawObstacles(Obstacle[], ArrayList&lt;Shape&gt;, Table, ImageView): void</text><ellipse cx="274" cy="570.6094" fill="#84BE84" rx="3" ry="3" style="stroke: #038048; stroke-width: 1.0;"/><text fill="#000000" font-family="sans-serif" font-size="11" lengthAdjust="spacingAndGlyphs" text-decoration="underline" textLength="397" x="283" y="573.8198">drawRobot(String, Hashtable&lt;String, Shape&gt;, Table, ImageView): void</text><ellipse cx="274" cy="583.4141" fill="#84BE84" rx="3" ry="3" style="stroke: #038048; stroke-width: 1.0;"/><text fill="#000000" font-family="sans-serif" font-size="11" lengthAdjust="spacingAndGlyphs" text-decoration="underline" textLength="293" x="283" y="586.6245">drawTrajectory(Table, String, Line, ImageView): void</text></a><!--MD5=[f5b3ba3a55e7f91814e86761cb6b0fc7]
class fr.enac.sita.controbot.view.View--><a href="View.html" target="_top" title="View.html" xlink:actuate="onRequest" xlink:href="View.html" xlink:show="new" xlink:title="View.html" xlink:type="simple"><rect fill="#FEFECE" filter="url(#f2s6dr1iotj7o)" height="214.4609" id="fr.enac.sita.controbot.view.View" style="stroke: #A80036; stroke-width: 1.5;" width="297" x="38.5" y="220"/><ellipse cx="168.75" cy="236" fill="#ADD1B2" rx="11" ry="11" style="stroke: #A80036; stroke-width: 1.0;"/><path d="M171.7188,241.6406 Q171.1406,241.9375 170.5,242.0781 Q169.8594,242.2344 169.1563,242.2344 Q166.6563,242.2344 165.3281,240.5938 Q164.0156,238.9375 164.0156,235.8125 Q164.0156,232.6875 165.3281,231.0313 Q166.6563,229.375 169.1563,229.375 Q169.8594,229.375 170.5,229.5313 Q171.1563,229.6875 171.7188,229.9844 L171.7188,232.7031 Q171.0938,232.125 170.5,231.8594 Q169.9063,231.5781 169.2813,231.5781 Q167.9375,231.5781 167.25,232.6563 Q166.5625,233.7188 166.5625,235.8125 Q166.5625,237.9063 167.25,238.9844 Q167.9375,240.0469 169.2813,240.0469 Q169.9063,240.0469 170.5,239.7813 Q171.0938,239.5 171.7188,238.9219 L171.7188,241.6406 Z "/><text fill="#000000" font-family="sans-serif" font-size="12" lengthAdjust="spacingAndGlyphs" textLength="28" x="189.25" y="240.1543">View</text><line style="stroke: #A80036; stroke-width: 1.5;" x1="39.5" x2="334.5" y1="252" y2="252"/><line style="stroke: #A80036; stroke-width: 1.5;" x1="39.5" x2="334.5" y1="260" y2="260"/><ellipse cx="49.5" cy="271" fill="#84BE84" rx="3" ry="3" style="stroke: #038048; stroke-width: 1.0;"/><text fill="#000000" font-family="sans-serif" font-size="11" lengthAdjust="spacingAndGlyphs" textLength="100" x="58.5" y="274.2104">getName(): String</text><ellipse cx="49.5" cy="283.8047" fill="#84BE84" rx="3" ry="3" style="stroke: #038048; stroke-width: 1.0;"/><text fill="#000000" font-family="sans-serif" font-size="11" lengthAdjust="spacingAndGlyphs" textLength="103" x="58.5" y="287.0151">getScene(): Scene</text><ellipse cx="49.5" cy="296.6094" fill="#84BE84" rx="3" ry="3" style="stroke: #038048; stroke-width: 1.0;"/><text fill="#000000" font-family="sans-serif" font-size="11" lengthAdjust="spacingAndGlyphs" textLength="123" x="58.5" y="299.8198">setName(String): void</text><ellipse cx="49.5" cy="309.4141" fill="#84BE84" rx="3" ry="3" style="stroke: #038048; stroke-width: 1.0;"/><text fill="#000000" font-family="sans-serif" font-size="11" lengthAdjust="spacingAndGlyphs" textLength="98" x="58.5" y="312.6245">start(Stage): void</text><ellipse cx="49.5" cy="322.2188" fill="#84BE84" rx="3" ry="3" style="stroke: #038048; stroke-width: 1.0;"/><text fill="#000000" font-family="sans-serif" font-size="11" lengthAdjust="spacingAndGlyphs" text-decoration="underline" textLength="127" x="58.5" y="325.4292">alertError(String): void</text><ellipse cx="49.5" cy="335.0234" fill="#84BE84" rx="3" ry="3" style="stroke: #038048; stroke-width: 1.0;"/><text fill="#000000" font-family="sans-serif" font-size="11" lengthAdjust="spacingAndGlyphs" textLength="118" x="58.5" y="338.2339">setTable(Table): void</text><ellipse cx="49.5" cy="347.8281" fill="#84BE84" rx="3" ry="3" style="stroke: #038048; stroke-width: 1.0;"/><text fill="#000000" font-family="sans-serif" font-size="11" lengthAdjust="spacingAndGlyphs" text-decoration="underline" textLength="271" x="58.5" y="351.0386">jsonGetDirectory(File, JsonObject, String): String</text><ellipse cx="49.5" cy="360.6328" fill="#84BE84" rx="3" ry="3" style="stroke: #038048; stroke-width: 1.0;"/><text fill="#000000" font-family="sans-serif" font-size="11" lengthAdjust="spacingAndGlyphs" text-decoration="underline" textLength="228" x="58.5" y="363.8433">jsonGetString(JsonObject, String): String</text><ellipse cx="49.5" cy="373.4375" fill="#84BE84" rx="3" ry="3" style="stroke: #038048; stroke-width: 1.0;"/><text fill="#000000" font-family="sans-serif" font-size="11" lengthAdjust="spacingAndGlyphs" text-decoration="underline" textLength="224" x="58.5" y="376.6479">jsonGetArray(JsonObject, String): String</text><ellipse cx="49.5" cy="386.2422" fill="#84BE84" rx="3" ry="3" style="stroke: #038048; stroke-width: 1.0;"/><text fill="#000000" font-family="sans-serif" font-size="11" lengthAdjust="spacingAndGlyphs" textLength="133" x="58.5" y="389.4526">ivyConnect(String): void</text><ellipse cx="49.5" cy="399.0469" fill="#84BE84" rx="3" ry="3" style="stroke: #038048; stroke-width: 1.0;"/><text fill="#000000" font-family="sans-serif" font-size="11" lengthAdjust="spacingAndGlyphs" textLength="244" x="58.5" y="402.2573">mouseConnect(Accordion, StackPane): void</text><ellipse cx="49.5" cy="411.8516" fill="#84BE84" rx="3" ry="3" style="stroke: #038048; stroke-width: 1.0;"/><text fill="#000000" font-family="sans-serif" font-size="11" lengthAdjust="spacingAndGlyphs" textLength="158" x="58.5" y="415.062">keyConnect(Accordion): void</text><ellipse cx="49.5" cy="424.6563" fill="#84BE84" rx="3" ry="3" style="stroke: #038048; stroke-width: 1.0;"/><text fill="#000000" font-family="sans-serif" font-size="11" lengthAdjust="spacingAndGlyphs" textLength="95" x="58.5" y="427.8667">getTable(): Table</text></a><!--MD5=[e3612552781b2b3849880f2b7cc3064d]
class javafx.application.Application--><rect fill="#FEFECE" filter="url(#f2s6dr1iotj7o)" height="86.4141" id="javafx.application.Application" style="stroke: #A80036; stroke-width: 1.5;" width="193" x="90.5" y="59"/><ellipse cx="149.75" cy="75" fill="#A9DCDF" rx="11" ry="11" style="stroke: #A80036; stroke-width: 1.0;"/><path d="M149.8594,70.3438 L148.7031,75.4219 L151.0313,75.4219 L149.8594,70.3438 Z M148.375,68.1094 L151.3594,68.1094 L154.7188,80.5 L152.2656,80.5 L151.5,77.4375 L148.2188,77.4375 L147.4688,80.5 L145.0313,80.5 L148.375,68.1094 Z "/><text fill="#000000" font-family="sans-serif" font-size="12" font-style="italic" lengthAdjust="spacingAndGlyphs" textLength="66" x="170.25" y="79.1543">Application</text><line style="stroke: #A80036; stroke-width: 1.5;" x1="91.5" x2="282.5" y1="91" y2="91"/><ellipse cx="101.5" cy="102" fill="none" rx="3" ry="3" style="stroke: #038048; stroke-width: 1.0;"/><text fill="#000000" font-family="sans-serif" font-size="11" lengthAdjust="spacingAndGlyphs" text-decoration="underline" textLength="167" x="110.5" y="105.2104">STYLESHEET_CASPIAN: String</text><ellipse cx="101.5" cy="114.8047" fill="none" rx="3" ry="3" style="stroke: #038048; stroke-width: 1.0;"/><text fill="#000000" font-family="sans-serif" font-size="11" lengthAdjust="spacingAndGlyphs" text-decoration="underline" textLength="167" x="110.5" y="118.0151">STYLESHEET_MODENA: String</text><line style="stroke: #A80036; stroke-width: 1.5;" x1="91.5" x2="282.5" y1="124.6094" y2="124.6094"/><ellipse cx="101.5" cy="135.6094" fill="#84BE84" rx="3" ry="3" style="stroke: #038048; stroke-width: 1.0;"/><text fill="#000000" font-family="sans-serif" font-size="11" font-style="italic" lengthAdjust="spacingAndGlyphs" textLength="97" x="110.5" y="138.8198">start(Stage): void</text><!--MD5=[1b778a6d1bc8b65b37f81c6ec7b796af]
reverse link javafx.application.Application to fr.enac.sita.controbot.view.View--><path d="M187,165.41 C187,182.27 187,201.01 187,219.56 " fill="none" id="javafx.application.Application&lt;-fr.enac.sita.controbot.view.View" style="stroke: #A80036; stroke-width: 1.0;"/><polygon fill="none" points="180,165.21,187,145.21,194,165.21,180,165.21" style="stroke: #A80036; stroke-width: 1.0;"/><!--MD5=[b39c29bfce8882a4f11661dffec51fc0]
link fr.enac.sita.controbot.view.ConverterTable2Ground to fr.enac.sita.controbot.view.Loader--><!--MD5=[58afa75ff21c287303ac106e8a1c7cc4]
link fr.enac.sita.controbot.view.ConverterTable2Ground to fr.enac.sita.controbot.view.Drawer--><text fill="#888888" font-family="sans-serif" font-size="10" lengthAdjust="spacingAndGlyphs" textLength="186" x="664" y="644.2822">UMLDoclet 2.0.9, PlantUML 1.2020.08</text><!--MD5=[edbc1b167a9a0b238eacad37c0c8c579]
@startuml
    namespace fr.enac.sita.controbot.view {

        class ConverterTable2Ground [[ConverterTable2Ground.html]] {
            +convert(Table, ImageView): void
            +table2GroundWidth(double): double
            +table2GroundHeight(double): double
            +ground2TableWidth(double): double
            +ground2TableHeight(double): double
            +getOffsetX(): double
            +getOffsetY(): double
        }

        class Loader [[Loader.html]] {
            {static} +loadRobot(Path, Pane, Accordion, Hashtable<String, Shape>, View, Table, ImageView, Hashtable<String, Line>): void
            {static} +initDrawRobot(Pane, Robot<AbstractActuator>, Accordion, Hashtable<String, Shape>, View, Table, ImageView, Hashtable<String, Line>): void
            {static} +loadSequence(Path, Table, Accordion): void
            {static} +loadConfig(FileChooser, Stage, Pane, Accordion, StackPane, View, Hashtable<String, Shape>, ImageView, Hashtable<String, Line>): void
            {static} +loadTable(Path, Pane, Accordion, View, ImageView, Hashtable<String, Shape>): void
        }

        class Drawer [[Drawer.html]] {
            {static} +drawObstaclesInit(Obstacle[], Pane, Table, ImageView): ArrayList<Shape>
            {static} +drawObstacles(Obstacle[], ArrayList<Shape>, Table, ImageView): void
            {static} +drawRobot(String, Hashtable<String, Shape>, Table, ImageView): void
            {static} +drawTrajectory(Table, String, Line, ImageView): void
        }

        class View [[View.html]] {
            +getName(): String
            +getScene(): Scene
            +setName(String): void
            +start(Stage): void
            {static} +alertError(String): void
            +setTable(Table): void
            {static} +jsonGetDirectory(File, JsonObject, String): String
            {static} +jsonGetString(JsonObject, String): String
            {static} +jsonGetArray(JsonObject, String): String
            +ivyConnect(String): void
            +mouseConnect(Accordion, StackPane): void
            +keyConnect(Accordion): void
            +getTable(): Table
        }

        javafx.application.Application <|- - View
    }

    namespace javafx.application {
        abstract class Application {
            {static} +STYLESHEET_CASPIAN: String
            {static} +STYLESHEET_MODENA: String
            {abstract} +start(Stage): void
        }
    }

    center footer UMLDoclet 2.0.9, PlantUML 1.2020.08
@enduml

PlantUML version 1.2020.08(Sun Apr 26 16:08:22 CEST 2020)
(APACHE source distribution)
Java Runtime: OpenJDK Runtime Environment
JVM: OpenJDK 64-Bit Server VM
Java Version: 13.0.2+8
Operating System: Linux
Default Encoding: UTF-8
Language: fr
Country: FR
--></g></svg>