<?xml version="1.0" encoding="UTF-8" standalone="no"?><svg xmlns="http://www.w3.org/2000/svg" xmlns:xlink="http://www.w3.org/1999/xlink" contentScriptType="application/ecmascript" contentStyleType="text/css" height="172px" preserveAspectRatio="none" style="width:365px;height:172px;" version="1.1" viewBox="0 0 365 172" width="365px" zoomAndPan="magnify"><defs><filter height="300%" id="f164528q3ai370" width="300%" x="-1" y="-1"><feGaussianBlur result="blurOut" stdDeviation="2.0"/><feColorMatrix in="blurOut" result="blurOut2" type="matrix" values="0 0 0 0 0 0 0 0 0 0 0 0 0 0 0 0 0 0 .4 0"/><feOffset dx="4.0" dy="4.0" in="blurOut2" result="blurOut3"/><feBlend in="SourceGraphic" in2="blurOut3" mode="normal"/></filter></defs><g><!--MD5=[cb3b91f64e7d2dd15f6c30d36a694d01]
class fr.enac.sita.controbot.view.controllers.PositionController--><a href="PositionController.html" target="_top" title="PositionController.html" xlink:actuate="onRequest" xlink:href="PositionController.html" xlink:show="new" xlink:title="PositionController.html" xlink:type="simple"><rect fill="#FEFECE" filter="url(#f164528q3ai370)" height="135.5703" id="fr.enac.sita.controbot.view.controllers.PositionController" style="stroke: #A80036; stroke-width: 1.5;" width="347" x="7" y="7"/><ellipse cx="85.25" cy="25.9688" fill="#ADD1B2" rx="11" ry="11" style="stroke: #A80036; stroke-width: 1.0;"/><path d="M88.2188,31.6094 Q87.6406,31.9063 87,32.0469 Q86.3594,32.2031 85.6563,32.2031 Q83.1563,32.2031 81.8281,30.5625 Q80.5156,28.9063 80.5156,25.7813 Q80.5156,22.6563 81.8281,21 Q83.1563,19.3438 85.6563,19.3438 Q86.3594,19.3438 87,19.5 Q87.6563,19.6563 88.2188,19.9531 L88.2188,22.6719 Q87.5938,22.0938 87,21.8281 Q86.4063,21.5469 85.7813,21.5469 Q84.4375,21.5469 83.75,22.625 Q83.0625,23.6875 83.0625,25.7813 Q83.0625,27.875 83.75,28.9531 Q84.4375,30.0156 85.7813,30.0156 Q86.4063,30.0156 87,29.75 Q87.5938,29.4688 88.2188,28.8906 L88.2188,31.6094 Z "/><text fill="#000000" font-family="sans-serif" font-size="14" lengthAdjust="spacingAndGlyphs" textLength="122" x="135.75" y="24.9951">PositionController</text><text fill="#000000" font-family="sans-serif" font-size="10" lengthAdjust="spacingAndGlyphs" textLength="182" x="105.75" y="37.5791">fr.enac.sita.controbot.view.controllers</text><line style="stroke: #A80036; stroke-width: 1.5;" x1="8" x2="353" y1="44.9375" y2="44.9375"/><ellipse cx="18" cy="55.9375" fill="#84BE84" rx="3" ry="3" style="stroke: #038048; stroke-width: 1.0;"/><text fill="#000000" font-family="sans-serif" font-size="11" lengthAdjust="spacingAndGlyphs" textLength="321" x="27" y="59.1479">PositionController(Robot&lt;AbstractActuator&gt;, View, VBox)</text><ellipse cx="18" cy="68.7422" fill="#84BE84" rx="3" ry="3" style="stroke: #038048; stroke-width: 1.0;"/><text fill="#000000" font-family="sans-serif" font-size="11" lengthAdjust="spacingAndGlyphs" textLength="132" x="27" y="71.9526">addPosition(VBox): void</text><ellipse cx="18" cy="81.5469" fill="#84BE84" rx="3" ry="3" style="stroke: #038048; stroke-width: 1.0;"/><text fill="#000000" font-family="sans-serif" font-size="11" lengthAdjust="spacingAndGlyphs" textLength="77" x="27" y="84.7573">update(): void</text><ellipse cx="18" cy="94.3516" fill="#84BE84" rx="3" ry="3" style="stroke: #038048; stroke-width: 1.0;"/><text fill="#000000" font-family="sans-serif" font-size="11" lengthAdjust="spacingAndGlyphs" textLength="209" x="27" y="97.562">getRobot(): Robot&lt;AbstractActuator&gt;</text><ellipse cx="18" cy="107.1563" fill="#84BE84" rx="3" ry="3" style="stroke: #038048; stroke-width: 1.0;"/><text fill="#000000" font-family="sans-serif" font-size="11" lengthAdjust="spacingAndGlyphs" textLength="85" x="27" y="110.3667">getView(): View</text><ellipse cx="18" cy="119.9609" fill="#84BE84" rx="3" ry="3" style="stroke: #038048; stroke-width: 1.0;"/><text fill="#000000" font-family="sans-serif" font-size="11" lengthAdjust="spacingAndGlyphs" textLength="122" x="27" y="123.1714">getX(): StringProperty</text><ellipse cx="18" cy="132.7656" fill="#84BE84" rx="3" ry="3" style="stroke: #038048; stroke-width: 1.0;"/><text fill="#000000" font-family="sans-serif" font-size="11" lengthAdjust="spacingAndGlyphs" textLength="122" x="27" y="135.9761">getY(): StringProperty</text></a><text fill="#888888" font-family="sans-serif" font-size="10" lengthAdjust="spacingAndGlyphs" textLength="186" x="87.5" y="158.8525">UMLDoclet 2.0.9, PlantUML 1.2020.08</text><!--MD5=[538fa450b6d7201f8d7550733f216d72]
@startuml
    set namespaceSeparator none
    hide empty fields
    hide empty methods

    class "<size:14>PositionController\n<size:10>fr.enac.sita.controbot.view.controllers" as fr.enac.sita.controbot.view.controllers.PositionController [[PositionController.html]] {
        +PositionController(Robot<AbstractActuator>, View, VBox)
        +addPosition(VBox): void
        +update(): void
        +getRobot(): Robot<AbstractActuator>
        +getView(): View
        +getX(): StringProperty
        +getY(): StringProperty
    }

    center footer UMLDoclet 2.0.9, PlantUML 1.2020.08
@enduml

PlantUML version 1.2020.08(Sun Apr 26 16:08:22 CEST 2020)
(APACHE source distribution)
Java Runtime: OpenJDK Runtime Environment
JVM: OpenJDK 64-Bit Server VM
Java Version: 13.0.2+8
Operating System: Linux
Default Encoding: UTF-8
Language: fr
Country: FR
--></g></svg>