{
    "id": "EdgarSequence",
    "robot": "Edgar",
    "actions": [
        {
            "id": "init",
            "when": [
                "init",
                ""
            ],
            "action": "go_to",
            "params": [
                "2500",
                "250",
                "0"
            ]
        },
        {
            "id": "2ndGoTo",
            "when": [
                "after",
                "init"
            ],
            "action": "go_to",
            "params": [
                "2500",
                "1580",
                "90"
            ]
        },
        {
            "id": "3rdGoTo",
            "when": [
                "after",
                "2ndGoTo"
            ],
            "action": "go_to",
            "params": [
                "500",
                "1580",
                "180"
            ]
        },
        {
            "id": "4thGoTo",
            "when": [
                "after",
                "3rdGoTo"
            ],
            "action": "go_to",
            "params": [
                "500",
                "250",
                "270"
            ]
        }
    ]
}