<?xml version="1.0" encoding="UTF-8" standalone="no"?><svg xmlns="http://www.w3.org/2000/svg" xmlns:xlink="http://www.w3.org/1999/xlink" contentScriptType="application/ecmascript" contentStyleType="text/css" height="210px" preserveAspectRatio="none" style="width:219px;height:210px;" version="1.1" viewBox="0 0 219 210" width="219px" zoomAndPan="magnify"><defs><filter height="300%" id="f6hpq1qfvuyqy" width="300%" x="-1" y="-1"><feGaussianBlur result="blurOut" stdDeviation="2.0"/><feColorMatrix in="blurOut" result="blurOut2" type="matrix" values="0 0 0 0 0 0 0 0 0 0 0 0 0 0 0 0 0 0 .4 0"/><feOffset dx="4.0" dy="4.0" in="blurOut2" result="blurOut3"/><feBlend in="SourceGraphic" in2="blurOut3" mode="normal"/></filter></defs><g><!--MD5=[cf7e99a4c028a5b96f0b20842d73b263]
class fr.enac.sita.controbot.model.table.SCircle--><a href="SCircle.html" target="_top" title="SCircle.html" xlink:actuate="onRequest" xlink:href="SCircle.html" xlink:show="new" xlink:title="SCircle.html" xlink:type="simple"><rect fill="#FEFECE" filter="url(#f6hpq1qfvuyqy)" height="71.5469" id="fr.enac.sita.controbot.model.table.SCircle" style="stroke: #A80036; stroke-width: 1.5;" width="202" x="6" y="106"/><ellipse cx="23.7" cy="124.9688" fill="#ADD1B2" rx="11" ry="11" style="stroke: #A80036; stroke-width: 1.0;"/><path d="M26.6688,130.6094 Q26.0906,130.9063 25.45,131.0469 Q24.8094,131.2031 24.1063,131.2031 Q21.6063,131.2031 20.2781,129.5625 Q18.9656,127.9063 18.9656,124.7813 Q18.9656,121.6563 20.2781,120 Q21.6063,118.3438 24.1063,118.3438 Q24.8094,118.3438 25.45,118.5 Q26.1063,118.6563 26.6688,118.9531 L26.6688,121.6719 Q26.0438,121.0938 25.45,120.8281 Q24.8563,120.5469 24.2313,120.5469 Q22.8875,120.5469 22.2,121.625 Q21.5125,122.6875 21.5125,124.7813 Q21.5125,126.875 22.2,127.9531 Q22.8875,129.0156 24.2313,129.0156 Q24.8563,129.0156 25.45,128.75 Q26.0438,128.4688 26.6688,127.8906 L26.6688,130.6094 Z "/><text fill="#000000" font-family="sans-serif" font-size="14" lengthAdjust="spacingAndGlyphs" textLength="47" x="96.8" y="123.9951">SCircle</text><text fill="#000000" font-family="sans-serif" font-size="10" lengthAdjust="spacingAndGlyphs" textLength="164" x="38.3" y="136.5791">fr.enac.sita.controbot.model.table</text><line style="stroke: #A80036; stroke-width: 1.5;" x1="7" x2="207" y1="143.9375" y2="143.9375"/><ellipse cx="17" cy="154.9375" fill="#84BE84" rx="3" ry="3" style="stroke: #038048; stroke-width: 1.0;"/><text fill="#000000" font-family="sans-serif" font-size="11" lengthAdjust="spacingAndGlyphs" textLength="176" x="26" y="158.1479">SCircle(double, double, double)</text><ellipse cx="17" cy="167.7422" fill="#84BE84" rx="3" ry="3" style="stroke: #038048; stroke-width: 1.0;"/><text fill="#000000" font-family="sans-serif" font-size="11" lengthAdjust="spacingAndGlyphs" textLength="109" x="26" y="170.9526">getRadius(): double</text></a><!--MD5=[063f0954c1c716596e11b6a0e47de6b5]
class fr.enac.sita.controbot.model.table.AbstractShape--><a href="AbstractShape.html" target="_top" title="AbstractShape.html" xlink:actuate="onRequest" xlink:href="AbstractShape.html" xlink:show="new" xlink:title="AbstractShape.html" xlink:type="simple"><rect fill="#FEFECE" filter="url(#f6hpq1qfvuyqy)" height="37.9375" id="fr.enac.sita.controbot.model.table.AbstractShape" style="stroke: #A80036; stroke-width: 1.5;" width="201" x="6.5" y="8"/><ellipse cx="21.5" cy="26.9688" fill="#A9DCDF" rx="11" ry="11" style="stroke: #A80036; stroke-width: 1.0;"/><path d="M21.6094,22.3125 L20.4531,27.3906 L22.7813,27.3906 L21.6094,22.3125 Z M20.125,20.0781 L23.1094,20.0781 L26.4688,32.4688 L24.0156,32.4688 L23.25,29.4063 L19.9688,29.4063 L19.2188,32.4688 L16.7813,32.4688 L20.125,20.0781 Z "/><text fill="#000000" font-family="sans-serif" font-size="14" font-style="italic" lengthAdjust="spacingAndGlyphs" textLength="103" x="68.5" y="25.9951">AbstractShape</text><text fill="#000000" font-family="sans-serif" font-size="10" font-style="italic" lengthAdjust="spacingAndGlyphs" textLength="169" x="35.5" y="38.5791">fr.enac.sita.controbot.model.table</text></a><!--MD5=[1b9ff265426c45ed3eea30b1c42eee27]
reverse link fr.enac.sita.controbot.model.table.AbstractShape to fr.enac.sita.controbot.model.table.SCircle--><path d="M107,66.3 C107,79 107,93.08 107,105.56 " fill="none" id="fr.enac.sita.controbot.model.table.AbstractShape&lt;-fr.enac.sita.controbot.model.table.SCircle" style="stroke: #A80036; stroke-width: 1.0;"/><polygon fill="none" points="100,66.16,107,46.16,114,66.16,100,66.16" style="stroke: #A80036; stroke-width: 1.0;"/><text fill="#888888" font-family="sans-serif" font-size="10" lengthAdjust="spacingAndGlyphs" textLength="186" x="20" y="197.2822">UMLDoclet 2.0.9, PlantUML 1.2020.08</text><!--MD5=[e3faf7c77f3b9e463c6df9095a18a583]
@startuml
    set namespaceSeparator none
    hide empty fields
    hide empty methods

    class "<size:14>SCircle\n<size:10>fr.enac.sita.controbot.model.table" as fr.enac.sita.controbot.model.table.SCircle [[SCircle.html]] {
        +SCircle(double, double, double)
        +getRadius(): double
    }

    abstract class "<size:14>AbstractShape\n<size:10>fr.enac.sita.controbot.model.table" as fr.enac.sita.controbot.model.table.AbstractShape [[AbstractShape.html]]

    fr.enac.sita.controbot.model.table.AbstractShape <|- - fr.enac.sita.controbot.model.table.SCircle

    center footer UMLDoclet 2.0.9, PlantUML 1.2020.08
@enduml

PlantUML version 1.2020.08(Sun Apr 26 16:08:22 CEST 2020)
(APACHE source distribution)
Java Runtime: OpenJDK Runtime Environment
JVM: OpenJDK 64-Bit Server VM
Java Version: 13.0.2+8
Operating System: Linux
Default Encoding: UTF-8
Language: fr
Country: FR
--></g></svg>