<?xml version="1.0" encoding="UTF-8" standalone="no"?><svg xmlns="http://www.w3.org/2000/svg" xmlns:xlink="http://www.w3.org/1999/xlink" contentScriptType="application/ecmascript" contentStyleType="text/css" height="442px" preserveAspectRatio="none" style="width:1916px;height:442px;" version="1.1" viewBox="0 0 1916 442" width="1916px" zoomAndPan="magnify"><defs><filter height="300%" id="f9z7hj43acwz0" width="300%" x="-1" y="-1"><feGaussianBlur result="blurOut" stdDeviation="2.0"/><feColorMatrix in="blurOut" result="blurOut2" type="matrix" values="0 0 0 0 0 0 0 0 0 0 0 0 0 0 0 0 0 0 .4 0"/><feOffset dx="4.0" dy="4.0" in="blurOut2" result="blurOut3"/><feBlend in="SourceGraphic" in2="blurOut3" mode="normal"/></filter></defs><g><!--MD5=[84718776d214be480e4c259efcb737fc]
class Main--><rect fill="#FEFECE" filter="url(#f9z7hj43acwz0)" height="48" id="Main" style="stroke: #A80036; stroke-width: 1.5;" width="59" x="67" y="8"/><ellipse cx="82" cy="24" fill="#A9DCDF" rx="11" ry="11" style="stroke: #A80036; stroke-width: 1.0;"/><path d="M82.1094,19.3438 L80.9531,24.4219 L83.2813,24.4219 L82.1094,19.3438 Z M80.625,17.1094 L83.6094,17.1094 L86.9688,29.5 L84.5156,29.5 L83.75,26.4375 L80.4688,26.4375 L79.7188,29.5 L77.2813,29.5 L80.625,17.1094 Z "/><text fill="#000000" font-family="sans-serif" font-size="12" font-style="italic" lengthAdjust="spacingAndGlyphs" textLength="27" x="96" y="28.1543">Main</text><line style="stroke: #A80036; stroke-width: 1.5;" x1="68" x2="125" y1="40" y2="40"/><line style="stroke: #A80036; stroke-width: 1.5;" x1="68" x2="125" y1="48" y2="48"/><!--MD5=[f8e7078f77c005d15b486c0c98deb1e6]
class Action--><rect fill="#FEFECE" filter="url(#f9z7hj43acwz0)" height="48" id="Action" style="stroke: #A80036; stroke-width: 1.5;" width="71" x="161" y="8"/><ellipse cx="176" cy="24" fill="#ADD1B2" rx="11" ry="11" style="stroke: #A80036; stroke-width: 1.0;"/><path d="M178.9688,29.6406 Q178.3906,29.9375 177.75,30.0781 Q177.1094,30.2344 176.4063,30.2344 Q173.9063,30.2344 172.5781,28.5938 Q171.2656,26.9375 171.2656,23.8125 Q171.2656,20.6875 172.5781,19.0313 Q173.9063,17.375 176.4063,17.375 Q177.1094,17.375 177.75,17.5313 Q178.4063,17.6875 178.9688,17.9844 L178.9688,20.7031 Q178.3438,20.125 177.75,19.8594 Q177.1563,19.5781 176.5313,19.5781 Q175.1875,19.5781 174.5,20.6563 Q173.8125,21.7188 173.8125,23.8125 Q173.8125,25.9063 174.5,26.9844 Q175.1875,28.0469 176.5313,28.0469 Q177.1563,28.0469 177.75,27.7813 Q178.3438,27.5 178.9688,26.9219 L178.9688,29.6406 Z "/><text fill="#000000" font-family="sans-serif" font-size="12" lengthAdjust="spacingAndGlyphs" textLength="39" x="190" y="28.1543">Action</text><line style="stroke: #A80036; stroke-width: 1.5;" x1="162" x2="231" y1="40" y2="40"/><line style="stroke: #A80036; stroke-width: 1.5;" x1="162" x2="231" y1="48" y2="48"/><!--MD5=[b313838781f69636e2e827b54586e64f]
class ActionsSequence--><rect fill="#FEFECE" filter="url(#f9z7hj43acwz0)" height="48" id="ActionsSequence" style="stroke: #A80036; stroke-width: 1.5;" width="141" x="444" y="258"/><ellipse cx="459" cy="274" fill="#ADD1B2" rx="11" ry="11" style="stroke: #A80036; stroke-width: 1.0;"/><path d="M461.9688,279.6406 Q461.3906,279.9375 460.75,280.0781 Q460.1094,280.2344 459.4063,280.2344 Q456.9063,280.2344 455.5781,278.5938 Q454.2656,276.9375 454.2656,273.8125 Q454.2656,270.6875 455.5781,269.0313 Q456.9063,267.375 459.4063,267.375 Q460.1094,267.375 460.75,267.5313 Q461.4063,267.6875 461.9688,267.9844 L461.9688,270.7031 Q461.3438,270.125 460.75,269.8594 Q460.1563,269.5781 459.5313,269.5781 Q458.1875,269.5781 457.5,270.6563 Q456.8125,271.7188 456.8125,273.8125 Q456.8125,275.9063 457.5,276.9844 Q458.1875,278.0469 459.5313,278.0469 Q460.1563,278.0469 460.75,277.7813 Q461.3438,277.5 461.9688,276.9219 L461.9688,279.6406 Z "/><text fill="#000000" font-family="sans-serif" font-size="12" lengthAdjust="spacingAndGlyphs" textLength="109" x="473" y="278.1543">ActionsSequence</text><line style="stroke: #A80036; stroke-width: 1.5;" x1="445" x2="584" y1="290" y2="290"/><line style="stroke: #A80036; stroke-width: 1.5;" x1="445" x2="584" y1="298" y2="298"/><!--MD5=[3665eb3fd787072a46f61389a33c30cc]
class ActuatorListener--><rect fill="#FEFECE" filter="url(#f9z7hj43acwz0)" height="48" id="ActuatorListener" style="stroke: #A80036; stroke-width: 1.5;" width="131" x="267" y="8"/><ellipse cx="282" cy="24" fill="#B4A7E5" rx="11" ry="11" style="stroke: #A80036; stroke-width: 1.0;"/><path d="M277.9219,19.7656 L277.9219,17.6094 L285.3125,17.6094 L285.3125,19.7656 L282.8438,19.7656 L282.8438,27.8438 L285.3125,27.8438 L285.3125,30 L277.9219,30 L277.9219,27.8438 L280.3906,27.8438 L280.3906,19.7656 L277.9219,19.7656 Z "/><text fill="#000000" font-family="sans-serif" font-size="12" font-style="italic" lengthAdjust="spacingAndGlyphs" textLength="99" x="296" y="28.1543">ActuatorListener</text><line style="stroke: #A80036; stroke-width: 1.5;" x1="268" x2="397" y1="40" y2="40"/><line style="stroke: #A80036; stroke-width: 1.5;" x1="268" x2="397" y1="48" y2="48"/><!--MD5=[87c1aa1bc8cb70b7a7dc62e69478f42c]
class IvyRxTx--><rect fill="#FEFECE" filter="url(#f9z7hj43acwz0)" height="48" id="IvyRxTx" style="stroke: #A80036; stroke-width: 1.5;" width="74" x="601.5" y="383"/><ellipse cx="616.5" cy="399" fill="#ADD1B2" rx="11" ry="11" style="stroke: #A80036; stroke-width: 1.0;"/><path d="M619.4688,404.6406 Q618.8906,404.9375 618.25,405.0781 Q617.6094,405.2344 616.9063,405.2344 Q614.4063,405.2344 613.0781,403.5938 Q611.7656,401.9375 611.7656,398.8125 Q611.7656,395.6875 613.0781,394.0313 Q614.4063,392.375 616.9063,392.375 Q617.6094,392.375 618.25,392.5313 Q618.9063,392.6875 619.4688,392.9844 L619.4688,395.7031 Q618.8438,395.125 618.25,394.8594 Q617.6563,394.5781 617.0313,394.5781 Q615.6875,394.5781 615,395.6563 Q614.3125,396.7188 614.3125,398.8125 Q614.3125,400.9063 615,401.9844 Q615.6875,403.0469 617.0313,403.0469 Q617.6563,403.0469 618.25,402.7813 Q618.8438,402.5 619.4688,401.9219 L619.4688,404.6406 Z "/><text fill="#000000" font-family="sans-serif" font-size="12" lengthAdjust="spacingAndGlyphs" textLength="42" x="630.5" y="403.1543">IvyRxTx</text><line style="stroke: #A80036; stroke-width: 1.5;" x1="602.5" x2="674.5" y1="415" y2="415"/><line style="stroke: #A80036; stroke-width: 1.5;" x1="602.5" x2="674.5" y1="423" y2="423"/><!--MD5=[f8c49929b0c0ee219bd7ffb764d4d27b]
class MovedListener--><rect fill="#FEFECE" filter="url(#f9z7hj43acwz0)" height="48" id="MovedListener" style="stroke: #A80036; stroke-width: 1.5;" width="117" x="38" y="133"/><ellipse cx="53" cy="149" fill="#B4A7E5" rx="11" ry="11" style="stroke: #A80036; stroke-width: 1.0;"/><path d="M48.9219,144.7656 L48.9219,142.6094 L56.3125,142.6094 L56.3125,144.7656 L53.8438,144.7656 L53.8438,152.8438 L56.3125,152.8438 L56.3125,155 L48.9219,155 L48.9219,152.8438 L51.3906,152.8438 L51.3906,144.7656 L48.9219,144.7656 Z "/><text fill="#000000" font-family="sans-serif" font-size="12" font-style="italic" lengthAdjust="spacingAndGlyphs" textLength="85" x="67" y="153.1543">MovedListener</text><line style="stroke: #A80036; stroke-width: 1.5;" x1="39" x2="154" y1="165" y2="165"/><line style="stroke: #A80036; stroke-width: 1.5;" x1="39" x2="154" y1="173" y2="173"/><!--MD5=[015831f2b0d50de51fab113d20011a79]
class RobotUpdateTask--><rect fill="#FEFECE" filter="url(#f9z7hj43acwz0)" height="48" id="RobotUpdateTask" style="stroke: #A80036; stroke-width: 1.5;" width="144" x="559.5" y="8"/><ellipse cx="574.5" cy="24" fill="#ADD1B2" rx="11" ry="11" style="stroke: #A80036; stroke-width: 1.0;"/><path d="M577.4688,29.6406 Q576.8906,29.9375 576.25,30.0781 Q575.6094,30.2344 574.9063,30.2344 Q572.4063,30.2344 571.0781,28.5938 Q569.7656,26.9375 569.7656,23.8125 Q569.7656,20.6875 571.0781,19.0313 Q572.4063,17.375 574.9063,17.375 Q575.6094,17.375 576.25,17.5313 Q576.9063,17.6875 577.4688,17.9844 L577.4688,20.7031 Q576.8438,20.125 576.25,19.8594 Q575.6563,19.5781 575.0313,19.5781 Q573.6875,19.5781 573,20.6563 Q572.3125,21.7188 572.3125,23.8125 Q572.3125,25.9063 573,26.9844 Q573.6875,28.0469 575.0313,28.0469 Q575.6563,28.0469 576.25,27.7813 Q576.8438,27.5 577.4688,26.9219 L577.4688,29.6406 Z "/><text fill="#000000" font-family="sans-serif" font-size="12" lengthAdjust="spacingAndGlyphs" textLength="112" x="588.5" y="28.1543">RobotUpdateTask</text><line style="stroke: #A80036; stroke-width: 1.5;" x1="560.5" x2="702.5" y1="40" y2="40"/><line style="stroke: #A80036; stroke-width: 1.5;" x1="560.5" x2="702.5" y1="48" y2="48"/><!--MD5=[0268d740d862f14820d0c8825fa93910]
class TargetListener--><rect fill="#FEFECE" filter="url(#f9z7hj43acwz0)" height="48" id="TargetListener" style="stroke: #A80036; stroke-width: 1.5;" width="118" x="190.5" y="133"/><ellipse cx="205.5" cy="149" fill="#B4A7E5" rx="11" ry="11" style="stroke: #A80036; stroke-width: 1.0;"/><path d="M201.4219,144.7656 L201.4219,142.6094 L208.8125,142.6094 L208.8125,144.7656 L206.3438,144.7656 L206.3438,152.8438 L208.8125,152.8438 L208.8125,155 L201.4219,155 L201.4219,152.8438 L203.8906,152.8438 L203.8906,144.7656 L201.4219,144.7656 Z "/><text fill="#000000" font-family="sans-serif" font-size="12" font-style="italic" lengthAdjust="spacingAndGlyphs" textLength="86" x="219.5" y="153.1543">TargetListener</text><line style="stroke: #A80036; stroke-width: 1.5;" x1="191.5" x2="307.5" y1="165" y2="165"/><line style="stroke: #A80036; stroke-width: 1.5;" x1="191.5" x2="307.5" y1="173" y2="173"/><!--MD5=[50f64615761227785ae266a6bbf9bfe7]
class TrajectoryListener--><rect fill="#FEFECE" filter="url(#f9z7hj43acwz0)" height="48" id="TrajectoryListener" style="stroke: #A80036; stroke-width: 1.5;" width="139" x="344" y="133"/><ellipse cx="359" cy="149" fill="#B4A7E5" rx="11" ry="11" style="stroke: #A80036; stroke-width: 1.0;"/><path d="M354.9219,144.7656 L354.9219,142.6094 L362.3125,142.6094 L362.3125,144.7656 L359.8438,144.7656 L359.8438,152.8438 L362.3125,152.8438 L362.3125,155 L354.9219,155 L354.9219,152.8438 L357.3906,152.8438 L357.3906,144.7656 L354.9219,144.7656 Z "/><text fill="#000000" font-family="sans-serif" font-size="12" font-style="italic" lengthAdjust="spacingAndGlyphs" textLength="107" x="373" y="153.1543">TrajectoryListener</text><line style="stroke: #A80036; stroke-width: 1.5;" x1="345" x2="482" y1="165" y2="165"/><line style="stroke: #A80036; stroke-width: 1.5;" x1="345" x2="482" y1="173" y2="173"/><!--MD5=[fc8543638ca583096d704da3a1440309]
class AbstractActuator--><rect fill="#FEFECE" filter="url(#f9z7hj43acwz0)" height="48" id="AbstractActuator" style="stroke: #A80036; stroke-width: 1.5;" width="135" x="1170" y="258"/><ellipse cx="1185" cy="274" fill="#A9DCDF" rx="11" ry="11" style="stroke: #A80036; stroke-width: 1.0;"/><path d="M1185.1094,269.3438 L1183.9531,274.4219 L1186.2813,274.4219 L1185.1094,269.3438 Z M1183.625,267.1094 L1186.6094,267.1094 L1189.9688,279.5 L1187.5156,279.5 L1186.75,276.4375 L1183.4688,276.4375 L1182.7188,279.5 L1180.2813,279.5 L1183.625,267.1094 Z "/><text fill="#000000" font-family="sans-serif" font-size="12" font-style="italic" lengthAdjust="spacingAndGlyphs" textLength="103" x="1199" y="278.1543">AbstractActuator</text><line style="stroke: #A80036; stroke-width: 1.5;" x1="1171" x2="1304" y1="290" y2="290"/><line style="stroke: #A80036; stroke-width: 1.5;" x1="1171" x2="1304" y1="298" y2="298"/><!--MD5=[05f1a7330b1ceb1ed664acf8e30033c9]
class Motor--><rect fill="#FEFECE" filter="url(#f9z7hj43acwz0)" height="48" id="Motor" style="stroke: #A80036; stroke-width: 1.5;" width="68" x="1257.5" y="133"/><ellipse cx="1272.5" cy="149" fill="#ADD1B2" rx="11" ry="11" style="stroke: #A80036; stroke-width: 1.0;"/><path d="M1275.4688,154.6406 Q1274.8906,154.9375 1274.25,155.0781 Q1273.6094,155.2344 1272.9063,155.2344 Q1270.4063,155.2344 1269.0781,153.5938 Q1267.7656,151.9375 1267.7656,148.8125 Q1267.7656,145.6875 1269.0781,144.0313 Q1270.4063,142.375 1272.9063,142.375 Q1273.6094,142.375 1274.25,142.5313 Q1274.9063,142.6875 1275.4688,142.9844 L1275.4688,145.7031 Q1274.8438,145.125 1274.25,144.8594 Q1273.6563,144.5781 1273.0313,144.5781 Q1271.6875,144.5781 1271,145.6563 Q1270.3125,146.7188 1270.3125,148.8125 Q1270.3125,150.9063 1271,151.9844 Q1271.6875,153.0469 1273.0313,153.0469 Q1273.6563,153.0469 1274.25,152.7813 Q1274.8438,152.5 1275.4688,151.9219 L1275.4688,154.6406 Z "/><text fill="#000000" font-family="sans-serif" font-size="12" lengthAdjust="spacingAndGlyphs" textLength="36" x="1286.5" y="153.1543">Motor</text><line style="stroke: #A80036; stroke-width: 1.5;" x1="1258.5" x2="1324.5" y1="165" y2="165"/><line style="stroke: #A80036; stroke-width: 1.5;" x1="1258.5" x2="1324.5" y1="173" y2="173"/><!--MD5=[a95169970922befbaf60824f21aadd1a]
class Pump--><rect fill="#FEFECE" filter="url(#f9z7hj43acwz0)" height="48" id="Pump" style="stroke: #A80036; stroke-width: 1.5;" width="67" x="1399" y="133"/><ellipse cx="1414" cy="149" fill="#ADD1B2" rx="11" ry="11" style="stroke: #A80036; stroke-width: 1.0;"/><path d="M1416.9688,154.6406 Q1416.3906,154.9375 1415.75,155.0781 Q1415.1094,155.2344 1414.4063,155.2344 Q1411.9063,155.2344 1410.5781,153.5938 Q1409.2656,151.9375 1409.2656,148.8125 Q1409.2656,145.6875 1410.5781,144.0313 Q1411.9063,142.375 1414.4063,142.375 Q1415.1094,142.375 1415.75,142.5313 Q1416.4063,142.6875 1416.9688,142.9844 L1416.9688,145.7031 Q1416.3438,145.125 1415.75,144.8594 Q1415.1563,144.5781 1414.5313,144.5781 Q1413.1875,144.5781 1412.5,145.6563 Q1411.8125,146.7188 1411.8125,148.8125 Q1411.8125,150.9063 1412.5,151.9844 Q1413.1875,153.0469 1414.5313,153.0469 Q1415.1563,153.0469 1415.75,152.7813 Q1416.3438,152.5 1416.9688,151.9219 L1416.9688,154.6406 Z "/><text fill="#000000" font-family="sans-serif" font-size="12" lengthAdjust="spacingAndGlyphs" textLength="35" x="1428" y="153.1543">Pump</text><line style="stroke: #A80036; stroke-width: 1.5;" x1="1400" x2="1465" y1="165" y2="165"/><line style="stroke: #A80036; stroke-width: 1.5;" x1="1400" x2="1465" y1="173" y2="173"/><!--MD5=[60fb4f72b7635aa97affd2efc062a79f]
class Robot--><rect fill="#FEFECE" filter="url(#f9z7hj43acwz0)" height="48" id="Robot" style="stroke: #A80036; stroke-width: 1.5;" width="69" x="732" y="133"/><ellipse cx="747" cy="149" fill="#ADD1B2" rx="11" ry="11" style="stroke: #A80036; stroke-width: 1.0;"/><path d="M749.9688,154.6406 Q749.3906,154.9375 748.75,155.0781 Q748.1094,155.2344 747.4063,155.2344 Q744.9063,155.2344 743.5781,153.5938 Q742.2656,151.9375 742.2656,148.8125 Q742.2656,145.6875 743.5781,144.0313 Q744.9063,142.375 747.4063,142.375 Q748.1094,142.375 748.75,142.5313 Q749.4063,142.6875 749.9688,142.9844 L749.9688,145.7031 Q749.3438,145.125 748.75,144.8594 Q748.1563,144.5781 747.5313,144.5781 Q746.1875,144.5781 745.5,145.6563 Q744.8125,146.7188 744.8125,148.8125 Q744.8125,150.9063 745.5,151.9844 Q746.1875,153.0469 747.5313,153.0469 Q748.1563,153.0469 748.75,152.7813 Q749.3438,152.5 749.9688,151.9219 L749.9688,154.6406 Z "/><text fill="#000000" font-family="sans-serif" font-size="12" lengthAdjust="spacingAndGlyphs" textLength="37" x="761" y="153.1543">Robot</text><line style="stroke: #A80036; stroke-width: 1.5;" x1="733" x2="800" y1="165" y2="165"/><line style="stroke: #A80036; stroke-width: 1.5;" x1="733" x2="800" y1="173" y2="173"/><!--MD5=[818720c15edef10f64b7efb7fc232f7d]
class Servo--><rect fill="#FEFECE" filter="url(#f9z7hj43acwz0)" height="48" id="Servo" style="stroke: #A80036; stroke-width: 1.5;" width="67" x="1141" y="133"/><ellipse cx="1156" cy="149" fill="#ADD1B2" rx="11" ry="11" style="stroke: #A80036; stroke-width: 1.0;"/><path d="M1158.9688,154.6406 Q1158.3906,154.9375 1157.75,155.0781 Q1157.1094,155.2344 1156.4063,155.2344 Q1153.9063,155.2344 1152.5781,153.5938 Q1151.2656,151.9375 1151.2656,148.8125 Q1151.2656,145.6875 1152.5781,144.0313 Q1153.9063,142.375 1156.4063,142.375 Q1157.1094,142.375 1157.75,142.5313 Q1158.4063,142.6875 1158.9688,142.9844 L1158.9688,145.7031 Q1158.3438,145.125 1157.75,144.8594 Q1157.1563,144.5781 1156.5313,144.5781 Q1155.1875,144.5781 1154.5,145.6563 Q1153.8125,146.7188 1153.8125,148.8125 Q1153.8125,150.9063 1154.5,151.9844 Q1155.1875,153.0469 1156.5313,153.0469 Q1157.1563,153.0469 1157.75,152.7813 Q1158.3438,152.5 1158.9688,151.9219 L1158.9688,154.6406 Z "/><text fill="#000000" font-family="sans-serif" font-size="12" lengthAdjust="spacingAndGlyphs" textLength="35" x="1170" y="153.1543">Servo</text><line style="stroke: #A80036; stroke-width: 1.5;" x1="1142" x2="1207" y1="165" y2="165"/><line style="stroke: #A80036; stroke-width: 1.5;" x1="1142" x2="1207" y1="173" y2="173"/><!--MD5=[72bfd782fef577c3c896afe870721fbe]
class Valve--><rect fill="#FEFECE" filter="url(#f9z7hj43acwz0)" height="48" id="Valve" style="stroke: #A80036; stroke-width: 1.5;" width="65" x="899" y="133"/><ellipse cx="914" cy="149" fill="#ADD1B2" rx="11" ry="11" style="stroke: #A80036; stroke-width: 1.0;"/><path d="M916.9688,154.6406 Q916.3906,154.9375 915.75,155.0781 Q915.1094,155.2344 914.4063,155.2344 Q911.9063,155.2344 910.5781,153.5938 Q909.2656,151.9375 909.2656,148.8125 Q909.2656,145.6875 910.5781,144.0313 Q911.9063,142.375 914.4063,142.375 Q915.1094,142.375 915.75,142.5313 Q916.4063,142.6875 916.9688,142.9844 L916.9688,145.7031 Q916.3438,145.125 915.75,144.8594 Q915.1563,144.5781 914.5313,144.5781 Q913.1875,144.5781 912.5,145.6563 Q911.8125,146.7188 911.8125,148.8125 Q911.8125,150.9063 912.5,151.9844 Q913.1875,153.0469 914.5313,153.0469 Q915.1563,153.0469 915.75,152.7813 Q916.3438,152.5 916.9688,151.9219 L916.9688,154.6406 Z "/><text fill="#000000" font-family="sans-serif" font-size="12" lengthAdjust="spacingAndGlyphs" textLength="33" x="928" y="153.1543">Valve</text><line style="stroke: #A80036; stroke-width: 1.5;" x1="900" x2="963" y1="165" y2="165"/><line style="stroke: #A80036; stroke-width: 1.5;" x1="900" x2="963" y1="173" y2="173"/><!--MD5=[301ced20e5cdc9b4abcb52ca6a905441]
class AbstractShape--><rect fill="#FEFECE" filter="url(#f9z7hj43acwz0)" height="48" id="AbstractShape" style="stroke: #A80036; stroke-width: 1.5;" width="120" x="1669.5" y="133"/><ellipse cx="1684.5" cy="149" fill="#A9DCDF" rx="11" ry="11" style="stroke: #A80036; stroke-width: 1.0;"/><path d="M1684.6094,144.3438 L1683.4531,149.4219 L1685.7813,149.4219 L1684.6094,144.3438 Z M1683.125,142.1094 L1686.1094,142.1094 L1689.4688,154.5 L1687.0156,154.5 L1686.25,151.4375 L1682.9688,151.4375 L1682.2188,154.5 L1679.7813,154.5 L1683.125,142.1094 Z "/><text fill="#000000" font-family="sans-serif" font-size="12" font-style="italic" lengthAdjust="spacingAndGlyphs" textLength="88" x="1698.5" y="153.1543">AbstractShape</text><line style="stroke: #A80036; stroke-width: 1.5;" x1="1670.5" x2="1788.5" y1="165" y2="165"/><line style="stroke: #A80036; stroke-width: 1.5;" x1="1670.5" x2="1788.5" y1="173" y2="173"/><!--MD5=[23868d926b4091f874f65c50fc3e197e]
class Obstacle--><rect fill="#FEFECE" filter="url(#f9z7hj43acwz0)" height="48" id="Obstacle" style="stroke: #A80036; stroke-width: 1.5;" width="87" x="1570" y="8"/><ellipse cx="1585" cy="24" fill="#ADD1B2" rx="11" ry="11" style="stroke: #A80036; stroke-width: 1.0;"/><path d="M1587.9688,29.6406 Q1587.3906,29.9375 1586.75,30.0781 Q1586.1094,30.2344 1585.4063,30.2344 Q1582.9063,30.2344 1581.5781,28.5938 Q1580.2656,26.9375 1580.2656,23.8125 Q1580.2656,20.6875 1581.5781,19.0313 Q1582.9063,17.375 1585.4063,17.375 Q1586.1094,17.375 1586.75,17.5313 Q1587.4063,17.6875 1587.9688,17.9844 L1587.9688,20.7031 Q1587.3438,20.125 1586.75,19.8594 Q1586.1563,19.5781 1585.5313,19.5781 Q1584.1875,19.5781 1583.5,20.6563 Q1582.8125,21.7188 1582.8125,23.8125 Q1582.8125,25.9063 1583.5,26.9844 Q1584.1875,28.0469 1585.5313,28.0469 Q1586.1563,28.0469 1586.75,27.7813 Q1587.3438,27.5 1587.9688,26.9219 L1587.9688,29.6406 Z "/><text fill="#000000" font-family="sans-serif" font-size="12" lengthAdjust="spacingAndGlyphs" textLength="55" x="1599" y="28.1543">Obstacle</text><line style="stroke: #A80036; stroke-width: 1.5;" x1="1571" x2="1656" y1="40" y2="40"/><line style="stroke: #A80036; stroke-width: 1.5;" x1="1571" x2="1656" y1="48" y2="48"/><!--MD5=[c2a3785217d505f051380be01485f2fd]
class SCircle--><rect fill="#FEFECE" filter="url(#f9z7hj43acwz0)" height="48" id="SCircle" style="stroke: #A80036; stroke-width: 1.5;" width="74" x="1692.5" y="8"/><ellipse cx="1707.5" cy="24" fill="#ADD1B2" rx="11" ry="11" style="stroke: #A80036; stroke-width: 1.0;"/><path d="M1710.4688,29.6406 Q1709.8906,29.9375 1709.25,30.0781 Q1708.6094,30.2344 1707.9063,30.2344 Q1705.4063,30.2344 1704.0781,28.5938 Q1702.7656,26.9375 1702.7656,23.8125 Q1702.7656,20.6875 1704.0781,19.0313 Q1705.4063,17.375 1707.9063,17.375 Q1708.6094,17.375 1709.25,17.5313 Q1709.9063,17.6875 1710.4688,17.9844 L1710.4688,20.7031 Q1709.8438,20.125 1709.25,19.8594 Q1708.6563,19.5781 1708.0313,19.5781 Q1706.6875,19.5781 1706,20.6563 Q1705.3125,21.7188 1705.3125,23.8125 Q1705.3125,25.9063 1706,26.9844 Q1706.6875,28.0469 1708.0313,28.0469 Q1708.6563,28.0469 1709.25,27.7813 Q1709.8438,27.5 1710.4688,26.9219 L1710.4688,29.6406 Z "/><text fill="#000000" font-family="sans-serif" font-size="12" lengthAdjust="spacingAndGlyphs" textLength="42" x="1721.5" y="28.1543">SCircle</text><line style="stroke: #A80036; stroke-width: 1.5;" x1="1693.5" x2="1765.5" y1="40" y2="40"/><line style="stroke: #A80036; stroke-width: 1.5;" x1="1693.5" x2="1765.5" y1="48" y2="48"/><!--MD5=[696af45bac34f66a6a8676ed9fae7ed1]
class SRectangle--><rect fill="#FEFECE" filter="url(#f9z7hj43acwz0)" height="48" id="SRectangle" style="stroke: #A80036; stroke-width: 1.5;" width="103" x="1802" y="8"/><ellipse cx="1817" cy="24" fill="#ADD1B2" rx="11" ry="11" style="stroke: #A80036; stroke-width: 1.0;"/><path d="M1819.9688,29.6406 Q1819.3906,29.9375 1818.75,30.0781 Q1818.1094,30.2344 1817.4063,30.2344 Q1814.9063,30.2344 1813.5781,28.5938 Q1812.2656,26.9375 1812.2656,23.8125 Q1812.2656,20.6875 1813.5781,19.0313 Q1814.9063,17.375 1817.4063,17.375 Q1818.1094,17.375 1818.75,17.5313 Q1819.4063,17.6875 1819.9688,17.9844 L1819.9688,20.7031 Q1819.3438,20.125 1818.75,19.8594 Q1818.1563,19.5781 1817.5313,19.5781 Q1816.1875,19.5781 1815.5,20.6563 Q1814.8125,21.7188 1814.8125,23.8125 Q1814.8125,25.9063 1815.5,26.9844 Q1816.1875,28.0469 1817.5313,28.0469 Q1818.1563,28.0469 1818.75,27.7813 Q1819.3438,27.5 1819.9688,26.9219 L1819.9688,29.6406 Z "/><text fill="#000000" font-family="sans-serif" font-size="12" lengthAdjust="spacingAndGlyphs" textLength="71" x="1831" y="28.1543">SRectangle</text><line style="stroke: #A80036; stroke-width: 1.5;" x1="1803" x2="1904" y1="40" y2="40"/><line style="stroke: #A80036; stroke-width: 1.5;" x1="1803" x2="1904" y1="48" y2="48"/><!--MD5=[c0b936abb008b3271898d4186b5531e4]
class Table--><rect fill="#FEFECE" filter="url(#f9z7hj43acwz0)" height="48" id="Table" style="stroke: #A80036; stroke-width: 1.5;" width="66" x="915.5" y="258"/><ellipse cx="930.5" cy="274" fill="#ADD1B2" rx="11" ry="11" style="stroke: #A80036; stroke-width: 1.0;"/><path d="M933.4688,279.6406 Q932.8906,279.9375 932.25,280.0781 Q931.6094,280.2344 930.9063,280.2344 Q928.4063,280.2344 927.0781,278.5938 Q925.7656,276.9375 925.7656,273.8125 Q925.7656,270.6875 927.0781,269.0313 Q928.4063,267.375 930.9063,267.375 Q931.6094,267.375 932.25,267.5313 Q932.9063,267.6875 933.4688,267.9844 L933.4688,270.7031 Q932.8438,270.125 932.25,269.8594 Q931.6563,269.5781 931.0313,269.5781 Q929.6875,269.5781 929,270.6563 Q928.3125,271.7188 928.3125,273.8125 Q928.3125,275.9063 929,276.9844 Q929.6875,278.0469 931.0313,278.0469 Q931.6563,278.0469 932.25,277.7813 Q932.8438,277.5 933.4688,276.9219 L933.4688,279.6406 Z "/><text fill="#000000" font-family="sans-serif" font-size="12" lengthAdjust="spacingAndGlyphs" textLength="34" x="944.5" y="278.1543">Table</text><line style="stroke: #A80036; stroke-width: 1.5;" x1="916.5" x2="980.5" y1="290" y2="290"/><line style="stroke: #A80036; stroke-width: 1.5;" x1="916.5" x2="980.5" y1="298" y2="298"/><!--MD5=[d364d5ddc8a25e8c3dadcf2d7304bc93]
class ConverterTable2Ground--><rect fill="#FEFECE" filter="url(#f9z7hj43acwz0)" height="48" id="ConverterTable2Ground" style="stroke: #A80036; stroke-width: 1.5;" width="181" x="6" y="258"/><ellipse cx="21" cy="274" fill="#ADD1B2" rx="11" ry="11" style="stroke: #A80036; stroke-width: 1.0;"/><path d="M23.9688,279.6406 Q23.3906,279.9375 22.75,280.0781 Q22.1094,280.2344 21.4063,280.2344 Q18.9063,280.2344 17.5781,278.5938 Q16.2656,276.9375 16.2656,273.8125 Q16.2656,270.6875 17.5781,269.0313 Q18.9063,267.375 21.4063,267.375 Q22.1094,267.375 22.75,267.5313 Q23.4063,267.6875 23.9688,267.9844 L23.9688,270.7031 Q23.3438,270.125 22.75,269.8594 Q22.1563,269.5781 21.5313,269.5781 Q20.1875,269.5781 19.5,270.6563 Q18.8125,271.7188 18.8125,273.8125 Q18.8125,275.9063 19.5,276.9844 Q20.1875,278.0469 21.5313,278.0469 Q22.1563,278.0469 22.75,277.7813 Q23.3438,277.5 23.9688,276.9219 L23.9688,279.6406 Z "/><text fill="#000000" font-family="sans-serif" font-size="12" lengthAdjust="spacingAndGlyphs" textLength="149" x="35" y="278.1543">ConverterTable2Ground</text><line style="stroke: #A80036; stroke-width: 1.5;" x1="7" x2="186" y1="290" y2="290"/><line style="stroke: #A80036; stroke-width: 1.5;" x1="7" x2="186" y1="298" y2="298"/><!--MD5=[79f6533230c3f33fdf7cfa7185401d89]
class Drawer--><rect fill="#FEFECE" filter="url(#f9z7hj43acwz0)" height="48" id="Drawer" style="stroke: #A80036; stroke-width: 1.5;" width="76" x="222.5" y="258"/><ellipse cx="237.5" cy="274" fill="#ADD1B2" rx="11" ry="11" style="stroke: #A80036; stroke-width: 1.0;"/><path d="M240.4688,279.6406 Q239.8906,279.9375 239.25,280.0781 Q238.6094,280.2344 237.9063,280.2344 Q235.4063,280.2344 234.0781,278.5938 Q232.7656,276.9375 232.7656,273.8125 Q232.7656,270.6875 234.0781,269.0313 Q235.4063,267.375 237.9063,267.375 Q238.6094,267.375 239.25,267.5313 Q239.9063,267.6875 240.4688,267.9844 L240.4688,270.7031 Q239.8438,270.125 239.25,269.8594 Q238.6563,269.5781 238.0313,269.5781 Q236.6875,269.5781 236,270.6563 Q235.3125,271.7188 235.3125,273.8125 Q235.3125,275.9063 236,276.9844 Q236.6875,278.0469 238.0313,278.0469 Q238.6563,278.0469 239.25,277.7813 Q239.8438,277.5 240.4688,276.9219 L240.4688,279.6406 Z "/><text fill="#000000" font-family="sans-serif" font-size="12" lengthAdjust="spacingAndGlyphs" textLength="44" x="251.5" y="278.1543">Drawer</text><line style="stroke: #A80036; stroke-width: 1.5;" x1="223.5" x2="297.5" y1="290" y2="290"/><line style="stroke: #A80036; stroke-width: 1.5;" x1="223.5" x2="297.5" y1="298" y2="298"/><!--MD5=[8d729038c48ea67d1bfca0b0b8d717df]
class Loader--><rect fill="#FEFECE" filter="url(#f9z7hj43acwz0)" height="48" id="Loader" style="stroke: #A80036; stroke-width: 1.5;" width="75" x="334" y="258"/><ellipse cx="349" cy="274" fill="#ADD1B2" rx="11" ry="11" style="stroke: #A80036; stroke-width: 1.0;"/><path d="M351.9688,279.6406 Q351.3906,279.9375 350.75,280.0781 Q350.1094,280.2344 349.4063,280.2344 Q346.9063,280.2344 345.5781,278.5938 Q344.2656,276.9375 344.2656,273.8125 Q344.2656,270.6875 345.5781,269.0313 Q346.9063,267.375 349.4063,267.375 Q350.1094,267.375 350.75,267.5313 Q351.4063,267.6875 351.9688,267.9844 L351.9688,270.7031 Q351.3438,270.125 350.75,269.8594 Q350.1563,269.5781 349.5313,269.5781 Q348.1875,269.5781 347.5,270.6563 Q346.8125,271.7188 346.8125,273.8125 Q346.8125,275.9063 347.5,276.9844 Q348.1875,278.0469 349.5313,278.0469 Q350.1563,278.0469 350.75,277.7813 Q351.3438,277.5 351.9688,276.9219 L351.9688,279.6406 Z "/><text fill="#000000" font-family="sans-serif" font-size="12" lengthAdjust="spacingAndGlyphs" textLength="43" x="363" y="278.1543">Loader</text><line style="stroke: #A80036; stroke-width: 1.5;" x1="335" x2="408" y1="290" y2="290"/><line style="stroke: #A80036; stroke-width: 1.5;" x1="335" x2="408" y1="298" y2="298"/><!--MD5=[c045e12321b83266d36d22b9096c24ea]
class View--><rect fill="#FEFECE" filter="url(#f9z7hj43acwz0)" height="48" id="View" style="stroke: #A80036; stroke-width: 1.5;" width="60" x="1030.5" y="133"/><ellipse cx="1045.5" cy="149" fill="#ADD1B2" rx="11" ry="11" style="stroke: #A80036; stroke-width: 1.0;"/><path d="M1048.4688,154.6406 Q1047.8906,154.9375 1047.25,155.0781 Q1046.6094,155.2344 1045.9063,155.2344 Q1043.4063,155.2344 1042.0781,153.5938 Q1040.7656,151.9375 1040.7656,148.8125 Q1040.7656,145.6875 1042.0781,144.0313 Q1043.4063,142.375 1045.9063,142.375 Q1046.6094,142.375 1047.25,142.5313 Q1047.9063,142.6875 1048.4688,142.9844 L1048.4688,145.7031 Q1047.8438,145.125 1047.25,144.8594 Q1046.6563,144.5781 1046.0313,144.5781 Q1044.6875,144.5781 1044,145.6563 Q1043.3125,146.7188 1043.3125,148.8125 Q1043.3125,150.9063 1044,151.9844 Q1044.6875,153.0469 1046.0313,153.0469 Q1046.6563,153.0469 1047.25,152.7813 Q1047.8438,152.5 1048.4688,151.9219 L1048.4688,154.6406 Z "/><text fill="#000000" font-family="sans-serif" font-size="12" lengthAdjust="spacingAndGlyphs" textLength="28" x="1059.5" y="153.1543">View</text><line style="stroke: #A80036; stroke-width: 1.5;" x1="1031.5" x2="1089.5" y1="165" y2="165"/><line style="stroke: #A80036; stroke-width: 1.5;" x1="1031.5" x2="1089.5" y1="173" y2="173"/><!--MD5=[fc390df98efa5e0c5a75da2f8552da6c]
class MotorController--><rect fill="#FEFECE" filter="url(#f9z7hj43acwz0)" height="48" id="MotorController" style="stroke: #A80036; stroke-width: 1.5;" width="129" x="1242" y="8"/><ellipse cx="1257" cy="24" fill="#ADD1B2" rx="11" ry="11" style="stroke: #A80036; stroke-width: 1.0;"/><path d="M1259.9688,29.6406 Q1259.3906,29.9375 1258.75,30.0781 Q1258.1094,30.2344 1257.4063,30.2344 Q1254.9063,30.2344 1253.5781,28.5938 Q1252.2656,26.9375 1252.2656,23.8125 Q1252.2656,20.6875 1253.5781,19.0313 Q1254.9063,17.375 1257.4063,17.375 Q1258.1094,17.375 1258.75,17.5313 Q1259.4063,17.6875 1259.9688,17.9844 L1259.9688,20.7031 Q1259.3438,20.125 1258.75,19.8594 Q1258.1563,19.5781 1257.5313,19.5781 Q1256.1875,19.5781 1255.5,20.6563 Q1254.8125,21.7188 1254.8125,23.8125 Q1254.8125,25.9063 1255.5,26.9844 Q1256.1875,28.0469 1257.5313,28.0469 Q1258.1563,28.0469 1258.75,27.7813 Q1259.3438,27.5 1259.9688,26.9219 L1259.9688,29.6406 Z "/><text fill="#000000" font-family="sans-serif" font-size="12" lengthAdjust="spacingAndGlyphs" textLength="97" x="1271" y="28.1543">MotorController</text><line style="stroke: #A80036; stroke-width: 1.5;" x1="1243" x2="1370" y1="40" y2="40"/><line style="stroke: #A80036; stroke-width: 1.5;" x1="1243" x2="1370" y1="48" y2="48"/><!--MD5=[a5060deb6d59cc61592f8ab03ae49efc]
class PositionController--><rect fill="#FEFECE" filter="url(#f9z7hj43acwz0)" height="48" id="PositionController" style="stroke: #A80036; stroke-width: 1.5;" width="143" x="739" y="8"/><ellipse cx="754" cy="24" fill="#ADD1B2" rx="11" ry="11" style="stroke: #A80036; stroke-width: 1.0;"/><path d="M756.9688,29.6406 Q756.3906,29.9375 755.75,30.0781 Q755.1094,30.2344 754.4063,30.2344 Q751.9063,30.2344 750.5781,28.5938 Q749.2656,26.9375 749.2656,23.8125 Q749.2656,20.6875 750.5781,19.0313 Q751.9063,17.375 754.4063,17.375 Q755.1094,17.375 755.75,17.5313 Q756.4063,17.6875 756.9688,17.9844 L756.9688,20.7031 Q756.3438,20.125 755.75,19.8594 Q755.1563,19.5781 754.5313,19.5781 Q753.1875,19.5781 752.5,20.6563 Q751.8125,21.7188 751.8125,23.8125 Q751.8125,25.9063 752.5,26.9844 Q753.1875,28.0469 754.5313,28.0469 Q755.1563,28.0469 755.75,27.7813 Q756.3438,27.5 756.9688,26.9219 L756.9688,29.6406 Z "/><text fill="#000000" font-family="sans-serif" font-size="12" lengthAdjust="spacingAndGlyphs" textLength="111" x="768" y="28.1543">PositionController</text><line style="stroke: #A80036; stroke-width: 1.5;" x1="740" x2="881" y1="40" y2="40"/><line style="stroke: #A80036; stroke-width: 1.5;" x1="740" x2="881" y1="48" y2="48"/><!--MD5=[4ef051501044ea33d47cc44368f7d2bc]
class PumpController--><rect fill="#FEFECE" filter="url(#f9z7hj43acwz0)" height="48" id="PumpController" style="stroke: #A80036; stroke-width: 1.5;" width="128" x="1406.5" y="8"/><ellipse cx="1421.5" cy="24" fill="#ADD1B2" rx="11" ry="11" style="stroke: #A80036; stroke-width: 1.0;"/><path d="M1424.4688,29.6406 Q1423.8906,29.9375 1423.25,30.0781 Q1422.6094,30.2344 1421.9063,30.2344 Q1419.4063,30.2344 1418.0781,28.5938 Q1416.7656,26.9375 1416.7656,23.8125 Q1416.7656,20.6875 1418.0781,19.0313 Q1419.4063,17.375 1421.9063,17.375 Q1422.6094,17.375 1423.25,17.5313 Q1423.9063,17.6875 1424.4688,17.9844 L1424.4688,20.7031 Q1423.8438,20.125 1423.25,19.8594 Q1422.6563,19.5781 1422.0313,19.5781 Q1420.6875,19.5781 1420,20.6563 Q1419.3125,21.7188 1419.3125,23.8125 Q1419.3125,25.9063 1420,26.9844 Q1420.6875,28.0469 1422.0313,28.0469 Q1422.6563,28.0469 1423.25,27.7813 Q1423.8438,27.5 1424.4688,26.9219 L1424.4688,29.6406 Z "/><text fill="#000000" font-family="sans-serif" font-size="12" lengthAdjust="spacingAndGlyphs" textLength="96" x="1435.5" y="28.1543">PumpController</text><line style="stroke: #A80036; stroke-width: 1.5;" x1="1407.5" x2="1533.5" y1="40" y2="40"/><line style="stroke: #A80036; stroke-width: 1.5;" x1="1407.5" x2="1533.5" y1="48" y2="48"/><!--MD5=[a374c742c0e7f46f4cfa5364225d0721]
class ServoController--><rect fill="#FEFECE" filter="url(#f9z7hj43acwz0)" height="48" id="ServoController" style="stroke: #A80036; stroke-width: 1.5;" width="128" x="1078.5" y="8"/><ellipse cx="1093.5" cy="24" fill="#ADD1B2" rx="11" ry="11" style="stroke: #A80036; stroke-width: 1.0;"/><path d="M1096.4688,29.6406 Q1095.8906,29.9375 1095.25,30.0781 Q1094.6094,30.2344 1093.9063,30.2344 Q1091.4063,30.2344 1090.0781,28.5938 Q1088.7656,26.9375 1088.7656,23.8125 Q1088.7656,20.6875 1090.0781,19.0313 Q1091.4063,17.375 1093.9063,17.375 Q1094.6094,17.375 1095.25,17.5313 Q1095.9063,17.6875 1096.4688,17.9844 L1096.4688,20.7031 Q1095.8438,20.125 1095.25,19.8594 Q1094.6563,19.5781 1094.0313,19.5781 Q1092.6875,19.5781 1092,20.6563 Q1091.3125,21.7188 1091.3125,23.8125 Q1091.3125,25.9063 1092,26.9844 Q1092.6875,28.0469 1094.0313,28.0469 Q1094.6563,28.0469 1095.25,27.7813 Q1095.8438,27.5 1096.4688,26.9219 L1096.4688,29.6406 Z "/><text fill="#000000" font-family="sans-serif" font-size="12" lengthAdjust="spacingAndGlyphs" textLength="96" x="1107.5" y="28.1543">ServoController</text><line style="stroke: #A80036; stroke-width: 1.5;" x1="1079.5" x2="1205.5" y1="40" y2="40"/><line style="stroke: #A80036; stroke-width: 1.5;" x1="1079.5" x2="1205.5" y1="48" y2="48"/><!--MD5=[e3ffc38e10d06cd79aad5b39b1144f50]
class ValveController--><rect fill="#FEFECE" filter="url(#f9z7hj43acwz0)" height="48" id="ValveController" style="stroke: #A80036; stroke-width: 1.5;" width="126" x="917.5" y="8"/><ellipse cx="932.5" cy="24" fill="#ADD1B2" rx="11" ry="11" style="stroke: #A80036; stroke-width: 1.0;"/><path d="M935.4688,29.6406 Q934.8906,29.9375 934.25,30.0781 Q933.6094,30.2344 932.9063,30.2344 Q930.4063,30.2344 929.0781,28.5938 Q927.7656,26.9375 927.7656,23.8125 Q927.7656,20.6875 929.0781,19.0313 Q930.4063,17.375 932.9063,17.375 Q933.6094,17.375 934.25,17.5313 Q934.9063,17.6875 935.4688,17.9844 L935.4688,20.7031 Q934.8438,20.125 934.25,19.8594 Q933.6563,19.5781 933.0313,19.5781 Q931.6875,19.5781 931,20.6563 Q930.3125,21.7188 930.3125,23.8125 Q930.3125,25.9063 931,26.9844 Q931.6875,28.0469 933.0313,28.0469 Q933.6563,28.0469 934.25,27.7813 Q934.8438,27.5 935.4688,26.9219 L935.4688,29.6406 Z "/><text fill="#000000" font-family="sans-serif" font-size="12" lengthAdjust="spacingAndGlyphs" textLength="94" x="946.5" y="28.1543">ValveController</text><line style="stroke: #A80036; stroke-width: 1.5;" x1="918.5" x2="1042.5" y1="40" y2="40"/><line style="stroke: #A80036; stroke-width: 1.5;" x1="918.5" x2="1042.5" y1="48" y2="48"/><!--MD5=[bcdb474f2ffbc8aae6c4527642458945]
link ActionsSequence to IvyRxTx--><path d="M537.82,306.14 C558.78,326.92 589.55,357.45 611.55,379.27 " fill="none" id="ActionsSequence-&gt;IvyRxTx" style="stroke: #A80036; stroke-width: 1.0;"/><polygon fill="#A80036" points="615.28,382.97,611.6888,373.7992,611.7231,379.456,606.0664,379.4902,615.28,382.97" style="stroke: #A80036; stroke-width: 1.0;"/><text fill="#000000" font-family="sans-serif" font-size="13" lengthAdjust="spacingAndGlyphs" textLength="17" x="585.5" y="349.0669">ivy</text><!--MD5=[d6db9137259092618ad25cece38f8454]
link RobotUpdateTask to IvyRxTx--><path d="M631.93,56.05 C633.15,121.07 636.62,305.8 637.96,377.27 " fill="none" id="RobotUpdateTask-&gt;IvyRxTx" style="stroke: #A80036; stroke-width: 1.0;"/><polygon fill="#A80036" points="638.06,382.63,641.8792,373.5518,637.96,377.631,633.8808,373.7118,638.06,382.63" style="stroke: #A80036; stroke-width: 1.0;"/><text fill="#000000" font-family="sans-serif" font-size="13" lengthAdjust="spacingAndGlyphs" textLength="17" x="636.5" y="224.0669">ivy</text><!--MD5=[9cc69d6e53c5fb57b14ddf1673205a4f]
link RobotUpdateTask to Robot--><path d="M656.89,56.14 C679.8,77.01 713.49,107.7 737.46,129.54 " fill="none" id="RobotUpdateTask-&gt;Robot" style="stroke: #A80036; stroke-width: 1.0;"/><polygon fill="#A80036" points="741.22,132.97,737.2599,123.9524,737.5235,129.6031,731.8728,129.8667,741.22,132.97" style="stroke: #A80036; stroke-width: 1.0;"/><text fill="#000000" font-family="sans-serif" font-size="13" lengthAdjust="spacingAndGlyphs" textLength="34" x="708.5" y="99.0669">robot</text><!--MD5=[7da661cf7e024392ff2d6416edbbb50c]
link Motor to AbstractActuator--><path d="M1281.34,181.14 C1274.14,197.54 1264.27,220.01 1255.73,239.49 " fill="none" id="Motor-&gt;AbstractActuator" style="stroke: #A80036; stroke-width: 1.0;"/><polygon fill="none" points="1262.06,242.47,1247.61,257.97,1249.24,236.84,1262.06,242.47" style="stroke: #A80036; stroke-width: 1.0;"/><!--MD5=[0bf253acddca14c9d3b8666245965c42]
link Pump to AbstractActuator--><path d="M1398.98,179.14 C1369.4,197.8 1325.75,225.33 1291.29,247.07 " fill="none" id="Pump-&gt;AbstractActuator" style="stroke: #A80036; stroke-width: 1.0;"/><polygon fill="none" points="1294.88,253.08,1274.23,257.83,1287.41,241.24,1294.88,253.08" style="stroke: #A80036; stroke-width: 1.0;"/><!--MD5=[b8561bf1bcca184c16f4c649a65e0adc]
link Servo to AbstractActuator--><path d="M1186.35,181.14 C1194.84,197.71 1206.5,220.49 1216.55,240.1 " fill="none" id="Servo-&gt;AbstractActuator" style="stroke: #A80036; stroke-width: 1.0;"/><polygon fill="none" points="1222.82,236.98,1225.7,257.97,1210.36,243.36,1222.82,236.98" style="stroke: #A80036; stroke-width: 1.0;"/><!--MD5=[d48f573ea5e0a3c0df02f50679ce93ec]
link Valve to AbstractActuator--><path d="M945.11,181.04 C955.57,196.68 971.43,216.54 990.5,228 C1038.47,256.82 1099.98,270.07 1149.62,276.12 " fill="none" id="Valve-&gt;AbstractActuator" style="stroke: #A80036; stroke-width: 1.0;"/><polygon fill="none" points="1150.6,269.19,1169.75,278.27,1149.12,283.11,1150.6,269.19" style="stroke: #A80036; stroke-width: 1.0;"/><!--MD5=[ca3f679665b895260c482ce548963329]
link Obstacle to AbstractShape--><path d="M1635.32,56.14 C1654.92,76.92 1683.71,107.45 1704.29,129.27 " fill="none" id="Obstacle-&gt;AbstractShape" style="stroke: #A80036; stroke-width: 1.0;"/><polygon fill="#A80036" points="1707.78,132.97,1704.5063,123.6811,1704.346,129.3357,1698.6915,129.1755,1707.78,132.97" style="stroke: #A80036; stroke-width: 1.0;"/><text fill="#000000" font-family="sans-serif" font-size="13" lengthAdjust="spacingAndGlyphs" textLength="39" x="1679.5" y="99.0669">shape</text><!--MD5=[90a6499321b7775f2b32bdb30b93ec9f]
link SCircle to AbstractShape--><path d="M1729.5,56.14 C1729.5,72.11 1729.5,93.84 1729.5,112.95 " fill="none" id="SCircle-&gt;AbstractShape" style="stroke: #A80036; stroke-width: 1.0;"/><polygon fill="none" points="1736.5,112.97,1729.5,132.97,1722.5,112.97,1736.5,112.97" style="stroke: #A80036; stroke-width: 1.0;"/><!--MD5=[56981c585fff62106526079a920400ac]
link SRectangle to AbstractShape--><path d="M1830.18,56.14 C1812.42,73.74 1787.63,98.34 1767.09,118.72 " fill="none" id="SRectangle-&gt;AbstractShape" style="stroke: #A80036; stroke-width: 1.0;"/><polygon fill="none" points="1771.85,123.85,1752.72,132.97,1761.99,113.91,1771.85,123.85" style="stroke: #A80036; stroke-width: 1.0;"/><!--MD5=[0893cd9bbfbc1ca50de7bd5bd0f883fd]
link Table to IvyRxTx--><path d="M915.32,296.16 C858.54,318.69 742.84,364.6 680.51,389.33 " fill="none" id="Table-&gt;IvyRxTx" style="stroke: #A80036; stroke-width: 1.0;"/><polygon fill="#A80036" points="675.75,391.22,685.5908,391.6175,680.3973,389.3754,682.6394,384.1818,675.75,391.22" style="stroke: #A80036; stroke-width: 1.0;"/><text fill="#000000" font-family="sans-serif" font-size="13" lengthAdjust="spacingAndGlyphs" textLength="17" x="813.5" y="349.0669">ivy</text><!--MD5=[a40abd9d45d0c4e76a7b1886009be7a0]
link View to Table--><path d="M1039.43,181.14 C1020.58,201.84 992.94,232.2 973.08,254 " fill="none" id="View-&gt;Table" style="stroke: #A80036; stroke-width: 1.0;"/><polygon fill="#A80036" points="969.47,257.97,978.4884,254.0116,972.8376,254.2742,972.5751,248.6234,969.47,257.97" style="stroke: #A80036; stroke-width: 1.0;"/><text fill="#000000" font-family="sans-serif" font-size="13" lengthAdjust="spacingAndGlyphs" textLength="32" x="1012.5" y="224.0669">table</text><!--MD5=[2467fcf6e348ae13ed351ab9750db406]
link MotorController to Motor--><path d="M1303.68,56.14 C1301.2,76.49 1297.57,106.19 1294.93,127.91 " fill="none" id="MotorController-&gt;Motor" style="stroke: #A80036; stroke-width: 1.0;"/><polygon fill="#A80036" points="1294.31,132.97,1299.3864,124.5302,1294.9249,128.008,1291.4472,123.5464,1294.31,132.97" style="stroke: #A80036; stroke-width: 1.0;"/><text fill="#000000" font-family="sans-serif" font-size="13" lengthAdjust="spacingAndGlyphs" textLength="39" x="1301.5" y="99.0669">motor</text><!--MD5=[1d256689856db56549a50f1cf93ece82]
link MotorController to View--><path d="M1276.94,56.21 C1257.21,70.95 1230.26,89.69 1204.5,103 C1201.94,104.32 1137.2,128.02 1095.41,143.27 " fill="none" id="MotorController-&gt;View" style="stroke: #A80036; stroke-width: 1.0;"/><polygon fill="#A80036" points="1090.68,145,1100.5058,145.6739,1095.3773,143.2867,1097.7645,138.1582,1090.68,145" style="stroke: #A80036; stroke-width: 1.0;"/><text fill="#000000" font-family="sans-serif" font-size="13" lengthAdjust="spacingAndGlyphs" textLength="27" x="1235.5" y="99.0669">view</text><!--MD5=[53ea31a246da085a707796d576afe7b2]
link PositionController to Robot--><path d="M802.22,56.14 C794.91,76.58 784.23,106.44 776.45,128.18 " fill="none" id="PositionController-&gt;Robot" style="stroke: #A80036; stroke-width: 1.0;"/><polygon fill="#A80036" points="774.74,132.97,781.5436,125.8488,776.428,128.2636,774.0133,123.148,774.74,132.97" style="stroke: #A80036; stroke-width: 1.0;"/><text fill="#000000" font-family="sans-serif" font-size="13" lengthAdjust="spacingAndGlyphs" textLength="34" x="792.5" y="99.0669">robot</text><!--MD5=[7e8e9246a2fea9711ac5b320b6b665ef]
link PositionController to View--><path d="M858.76,56.07 C878,65.31 900.33,76.1 920.5,86 C956.36,103.6 997.2,124.07 1025.47,138.31 " fill="none" id="PositionController-&gt;View" style="stroke: #A80036; stroke-width: 1.0;"/><polygon fill="#A80036" points="1030.25,140.71,1023.9987,133.0994,1025.7807,138.4682,1020.4119,140.2502,1030.25,140.71" style="stroke: #A80036; stroke-width: 1.0;"/><text fill="#000000" font-family="sans-serif" font-size="13" lengthAdjust="spacingAndGlyphs" textLength="27" x="952.5" y="99.0669">view</text><!--MD5=[b73656af3ca87d88f1b7aa3757309512]
link PumpController to Pump--><path d="M1463.35,56.14 C1457.04,76.58 1447.81,106.44 1441.09,128.18 " fill="none" id="PumpController-&gt;Pump" style="stroke: #A80036; stroke-width: 1.0;"/><polygon fill="#A80036" points="1439.62,132.97,1446.1148,125.5661,1441.1065,128.1961,1438.4765,123.1877,1439.62,132.97" style="stroke: #A80036; stroke-width: 1.0;"/><text fill="#000000" font-family="sans-serif" font-size="13" lengthAdjust="spacingAndGlyphs" textLength="37" x="1455.5" y="99.0669">pump</text><!--MD5=[5dae1b282af669defd21f594662418d7]
link PumpController to View--><path d="M1438.8,56.01 C1415.31,71.85 1381.89,91.97 1349.5,103 C1253.58,135.66 1221.9,108.82 1123.5,133 C1114.25,135.27 1104.47,138.45 1095.45,141.71 " fill="none" id="PumpController-&gt;View" style="stroke: #A80036; stroke-width: 1.0;"/><polygon fill="#A80036" points="1090.53,143.52,1100.3575,144.1676,1095.2227,141.7941,1097.5961,136.6593,1090.53,143.52" style="stroke: #A80036; stroke-width: 1.0;"/><text fill="#000000" font-family="sans-serif" font-size="13" lengthAdjust="spacingAndGlyphs" textLength="27" x="1389.5" y="99.0669">view</text><!--MD5=[3843d8d6112246f4a04989e77e4dfd5a]
link ServoController to Servo--><path d="M1148.52,56.14 C1153.82,76.49 1161.54,106.19 1167.19,127.91 " fill="none" id="ServoController-&gt;Servo" style="stroke: #A80036; stroke-width: 1.0;"/><polygon fill="#A80036" points="1168.51,132.97,1170.1134,123.2525,1167.2502,128.1313,1162.3714,125.2682,1168.51,132.97" style="stroke: #A80036; stroke-width: 1.0;"/><text fill="#000000" font-family="sans-serif" font-size="13" lengthAdjust="spacingAndGlyphs" textLength="35" x="1161.5" y="99.0669">servo</text><!--MD5=[97938301639bffc01d4b94f4d4c5b469]
link ServoController to View--><path d="M1127.08,56.14 C1113.33,76.75 1093.2,106.94 1078.68,128.73 " fill="none" id="ServoController-&gt;View" style="stroke: #A80036; stroke-width: 1.0;"/><polygon fill="#A80036" points="1075.85,132.97,1084.1705,127.7003,1078.6235,128.8097,1077.5141,123.2627,1075.85,132.97" style="stroke: #A80036; stroke-width: 1.0;"/><text fill="#000000" font-family="sans-serif" font-size="13" lengthAdjust="spacingAndGlyphs" textLength="27" x="1107.5" y="99.0669">view</text><!--MD5=[1b94bd76e423df141aee3686a1fda78e]
link ValveController to Valve--><path d="M917.36,53.88 C903.14,61.67 889.81,72.12 881.5,86 C872.59,100.87 882.04,116.65 895.04,129.46 " fill="none" id="ValveController-&gt;Valve" style="stroke: #A80036; stroke-width: 1.0;"/><polygon fill="#A80036" points="898.78,132.99,894.9677,123.9089,895.139,129.5632,889.4847,129.7345,898.78,132.99" style="stroke: #A80036; stroke-width: 1.0;"/><text fill="#000000" font-family="sans-serif" font-size="13" lengthAdjust="spacingAndGlyphs" textLength="33" x="882.5" y="99.0669">valve</text><!--MD5=[0293b9dbddf330e381bc4615fd651838]
link ValveController to View--><path d="M995.22,56.06 C1003.98,69.73 1015.33,87.39 1025.5,103 C1030.88,111.26 1036.78,120.22 1042.17,128.38 " fill="none" id="ValveController-&gt;View" style="stroke: #A80036; stroke-width: 1.0;"/><polygon fill="#A80036" points="1045.1,132.82,1043.4744,123.1062,1042.343,128.6488,1036.8004,127.5174,1045.1,132.82" style="stroke: #A80036; stroke-width: 1.0;"/><text fill="#000000" font-family="sans-serif" font-size="13" lengthAdjust="spacingAndGlyphs" textLength="27" x="1026.5" y="99.0669">view</text><!--MD5=[05233519cd606a4430b27bac22d55b4b]
link Main to Action--><!--MD5=[2d430d34039e6947c8cd1e8e38ff67d2]
link Action to ActuatorListener--><!--MD5=[8ab01fec716d4ac0f50d4e73357d76ec]
link Main to MovedListener--><!--MD5=[3d94deddd31b98eeb5fa0e2ce9f71f6b]
link MovedListener to TargetListener--><!--MD5=[12cf7f2495ea580174b3dfecc55f1a0d]
link TargetListener to TrajectoryListener--><!--MD5=[e048ef3a45025301a78d7b062b287fee]
link MovedListener to ConverterTable2Ground--><!--MD5=[610094d622ce5b26e3d5c7659b6ecf59]
link ConverterTable2Ground to Drawer--><!--MD5=[96f99dcf4aba3c768ff20bd1355934eb]
link Drawer to Loader--><!--MD5=[813b2c776fea297f1fcbb2321d5b1c6a]
@startuml
abstract class Main {
}
class Action {
}
class ActionsSequence {
}
interface ActuatorListener {
}
class IvyRxTx {}
interface MovedListener {}
class RobotUpdateTask {}
interface TargetListener {}
interface TrajectoryListener {}
abstract class AbstractActuator {}
class Motor {
}
class Pump {
}
class Robot {
}
class Servo {}
class Valve {}
abstract class AbstractShape {
}
class Obstacle {}
class SCircle {}
class SRectangle {
}
class Table {}
class ConverterTable2Ground {}
class Drawer {
}
class Loader {
}
class View {
}
class MotorController {}
class PositionController {}
class PumpController {}
class ServoController {
}
class ValveController {
}
ActionsSequence - ->  IvyRxTx : ivy
RobotUpdateTask - ->  IvyRxTx : ivy
RobotUpdateTask - ->  Robot : robot
Motor - -|>  AbstractActuator
Pump - -|>  AbstractActuator
Servo - -|>  AbstractActuator
Valve - -|>  AbstractActuator
Obstacle - ->  AbstractShape : shape
SCircle - -|>  AbstractShape
SRectangle - -|>  AbstractShape
Table - ->  IvyRxTx : ivy
View - ->  Table : table
MotorController - ->  Motor : motor
MotorController - ->  View : view
PositionController - ->  Robot : robot
PositionController - ->  View : view
PumpController - ->  Pump : pump
PumpController - ->  View : view
ServoController - ->  Servo : servo
ServoController - ->  View : view
ValveController - ->  Valve : valve
ValveController - ->  View : view
@enduml

PlantUML version 1.2020.10(Sun May 17 11:35:57 CEST 2020)
(GPL source distribution)
Java Runtime: OpenJDK Runtime Environment
JVM: OpenJDK 64-Bit Server VM
Java Version: 13.0.2+8
Operating System: Linux
Default Encoding: UTF-8
Language: fr
Country: FR
--></g></svg>