<?xml version="1.0" encoding="UTF-8" standalone="no"?><svg xmlns="http://www.w3.org/2000/svg" xmlns:xlink="http://www.w3.org/1999/xlink" contentScriptType="application/ecmascript" contentStyleType="text/css" height="256px" preserveAspectRatio="none" style="width:312px;height:256px;" version="1.1" viewBox="0 0 312 256" width="312px" zoomAndPan="magnify"><defs><filter height="300%" id="f13wamxadslpil" width="300%" x="-1" y="-1"><feGaussianBlur result="blurOut" stdDeviation="2.0"/><feColorMatrix in="blurOut" result="blurOut2" type="matrix" values="0 0 0 0 0 0 0 0 0 0 0 0 0 0 0 0 0 0 .4 0"/><feOffset dx="4.0" dy="4.0" in="blurOut2" result="blurOut3"/><feBlend in="SourceGraphic" in2="blurOut3" mode="normal"/></filter></defs><g><!--MD5=[3169ad15a5ba2d4b91a8cecb29c3fae4]
class fr.enac.sita.controbot.actions.ActionsSequence--><a href="ActionsSequence.html" target="_top" title="ActionsSequence.html" xlink:actuate="onRequest" xlink:href="ActionsSequence.html" xlink:show="new" xlink:title="ActionsSequence.html" xlink:type="simple"><rect fill="#FEFECE" filter="url(#f13wamxadslpil)" height="97.1563" id="fr.enac.sita.controbot.actions.ActionsSequence" style="stroke: #A80036; stroke-width: 1.5;" width="295" x="6" y="127"/><ellipse cx="78.75" cy="145.9688" fill="#ADD1B2" rx="11" ry="11" style="stroke: #A80036; stroke-width: 1.0;"/><path d="M81.7188,151.6094 Q81.1406,151.9063 80.5,152.0469 Q79.8594,152.2031 79.1563,152.2031 Q76.6563,152.2031 75.3281,150.5625 Q74.0156,148.9063 74.0156,145.7813 Q74.0156,142.6563 75.3281,141 Q76.6563,139.3438 79.1563,139.3438 Q79.8594,139.3438 80.5,139.5 Q81.1563,139.6563 81.7188,139.9531 L81.7188,142.6719 Q81.0938,142.0938 80.5,141.8281 Q79.9063,141.5469 79.2813,141.5469 Q77.9375,141.5469 77.25,142.625 Q76.5625,143.6875 76.5625,145.7813 Q76.5625,147.875 77.25,148.9531 Q77.9375,150.0156 79.2813,150.0156 Q79.9063,150.0156 80.5,149.75 Q81.0938,149.4688 81.7188,148.8906 L81.7188,151.6094 Z "/><text fill="#000000" font-family="sans-serif" font-size="14" lengthAdjust="spacingAndGlyphs" textLength="122" x="108.75" y="144.9951">ActionsSequence</text><text fill="#000000" font-family="sans-serif" font-size="10" lengthAdjust="spacingAndGlyphs" textLength="141" x="99.25" y="157.5791">fr.enac.sita.controbot.actions</text><line style="stroke: #A80036; stroke-width: 1.5;" x1="7" x2="300" y1="164.9375" y2="164.9375"/><ellipse cx="17" cy="175.9375" fill="#84BE84" rx="3" ry="3" style="stroke: #038048; stroke-width: 1.0;"/><text fill="#000000" font-family="sans-serif" font-size="11" lengthAdjust="spacingAndGlyphs" textLength="269" x="26" y="179.1479">ActionsSequence(String, String, IvyRxTx, String)</text><ellipse cx="17" cy="188.7422" fill="#84BE84" rx="3" ry="3" style="stroke: #038048; stroke-width: 1.0;"/><text fill="#000000" font-family="sans-serif" font-size="11" lengthAdjust="spacingAndGlyphs" textLength="171" x="26" y="191.9526">setActionFinished(String): void</text><ellipse cx="17" cy="201.5469" fill="#84BE84" rx="3" ry="3" style="stroke: #038048; stroke-width: 1.0;"/><text fill="#000000" font-family="sans-serif" font-size="11" lengthAdjust="spacingAndGlyphs" textLength="57" x="26" y="204.7573">run(): void</text><ellipse cx="17" cy="214.3516" fill="#84BE84" rx="3" ry="3" style="stroke: #038048; stroke-width: 1.0;"/><text fill="#000000" font-family="sans-serif" font-size="11" lengthAdjust="spacingAndGlyphs" textLength="132" x="26" y="217.562">getRobotName(): String</text></a><!--MD5=[8dac795f9edbf65a524ac462449c98fb]
class java.lang.Runnable--><a href="https://docs.oracle.com/en/java/javase/13/docs/api/java.base/java/lang/Runnable.html?is-external=true" target="_top" title="https://docs.oracle.com/en/java/javase/13/docs/api/java.base/java/lang/Runnable.html?is-external=true" xlink:actuate="onRequest" xlink:href="https://docs.oracle.com/en/java/javase/13/docs/api/java.base/java/lang/Runnable.html?is-external=true" xlink:show="new" xlink:title="https://docs.oracle.com/en/java/javase/13/docs/api/java.base/java/lang/Runnable.html?is-external=true" xlink:type="simple"><rect fill="#FEFECE" filter="url(#f13wamxadslpil)" height="58.7422" id="java.lang.Runnable" style="stroke: #A80036; stroke-width: 1.5;" width="100" x="103.5" y="8"/><ellipse cx="118.5" cy="26.9688" fill="#B4A7E5" rx="11" ry="11" style="stroke: #A80036; stroke-width: 1.0;"/><path d="M114.4219,22.7344 L114.4219,20.5781 L121.8125,20.5781 L121.8125,22.7344 L119.3438,22.7344 L119.3438,30.8125 L121.8125,30.8125 L121.8125,32.9688 L114.4219,32.9688 L114.4219,30.8125 L116.8906,30.8125 L116.8906,22.7344 L114.4219,22.7344 Z "/><text fill="#000000" font-family="sans-serif" font-size="14" font-style="italic" lengthAdjust="spacingAndGlyphs" textLength="68" x="132.5" y="25.9951">Runnable</text><text fill="#000000" font-family="sans-serif" font-size="10" font-style="italic" lengthAdjust="spacingAndGlyphs" textLength="45" x="144" y="38.5791">java.lang</text><line style="stroke: #A80036; stroke-width: 1.5;" x1="104.5" x2="202.5" y1="45.9375" y2="45.9375"/><ellipse cx="114.5" cy="56.9375" fill="#84BE84" rx="3" ry="3" style="stroke: #038048; stroke-width: 1.0;"/><text fill="#000000" font-family="sans-serif" font-size="11" font-style="italic" lengthAdjust="spacingAndGlyphs" textLength="58" x="123.5" y="60.1479">run(): void</text></a><!--MD5=[a4cd5876734df579a84f10bbe127c59b]
reverse link java.lang.Runnable to fr.enac.sita.controbot.actions.ActionsSequence--><path d="M153.5,87.31 C153.5,100.15 153.5,113.97 153.5,126.75 " fill="none" id="java.lang.Runnable&lt;-fr.enac.sita.controbot.actions.ActionsSequence" style="stroke: #A80036; stroke-width: 1.0; stroke-dasharray: 7.0,7.0;"/><polygon fill="none" points="146.5,87.01,153.5,67.01,160.5,87.01,146.5,87.01" style="stroke: #A80036; stroke-width: 1.0;"/><text fill="#888888" font-family="sans-serif" font-size="10" lengthAdjust="spacingAndGlyphs" textLength="186" x="66.5" y="243.2822">UMLDoclet 2.0.9, PlantUML 1.2020.08</text><!--MD5=[292575a97201a8bac210a678b79883d6]
@startuml
    set namespaceSeparator none
    hide empty fields
    hide empty methods

    class "<size:14>ActionsSequence\n<size:10>fr.enac.sita.controbot.actions" as fr.enac.sita.controbot.actions.ActionsSequence [[ActionsSequence.html]] {
        +ActionsSequence(String, String, IvyRxTx, String)
        +setActionFinished(String): void
        +run(): void
        +getRobotName(): String
    }

    interface "<size:14>Runnable\n<size:10>java.lang" as java.lang.Runnable [[https://docs.oracle.com/en/java/javase/13/docs/api/java.base/java/lang/Runnable.html?is-external=true]] {
        {abstract} +run(): void
    }

    java.lang.Runnable <|.. fr.enac.sita.controbot.actions.ActionsSequence

    center footer UMLDoclet 2.0.9, PlantUML 1.2020.08
@enduml

PlantUML version 1.2020.08(Sun Apr 26 16:08:22 CEST 2020)
(APACHE source distribution)
Java Runtime: OpenJDK Runtime Environment
JVM: OpenJDK 64-Bit Server VM
Java Version: 13.0.2+8
Operating System: Linux
Default Encoding: UTF-8
Language: fr
Country: FR
--></g></svg>