<?xml version="1.0" encoding="UTF-8" standalone="no"?><svg xmlns="http://www.w3.org/2000/svg" xmlns:xlink="http://www.w3.org/1999/xlink" contentScriptType="application/ecmascript" contentStyleType="text/css" height="371px" preserveAspectRatio="none" style="width:314px;height:371px;" version="1.1" viewBox="0 0 314 371" width="314px" zoomAndPan="magnify"><defs><filter height="300%" id="f157janzn08gbu" width="300%" x="-1" y="-1"><feGaussianBlur result="blurOut" stdDeviation="2.0"/><feColorMatrix in="blurOut" result="blurOut2" type="matrix" values="0 0 0 0 0 0 0 0 0 0 0 0 0 0 0 0 0 0 .4 0"/><feOffset dx="4.0" dy="4.0" in="blurOut2" result="blurOut3"/><feBlend in="SourceGraphic" in2="blurOut3" mode="normal"/></filter></defs><g><!--MD5=[f5b3ba3a55e7f91814e86761cb6b0fc7]
class fr.enac.sita.controbot.view.View--><a href="View.html" target="_top" title="View.html" xlink:actuate="onRequest" xlink:href="View.html" xlink:show="new" xlink:title="View.html" xlink:type="simple"><rect fill="#FEFECE" filter="url(#f157janzn08gbu)" height="212.3984" id="fr.enac.sita.controbot.view.View" style="stroke: #A80036; stroke-width: 1.5;" width="297" x="6" y="127"/><ellipse cx="85.75" cy="145.9688" fill="#ADD1B2" rx="11" ry="11" style="stroke: #A80036; stroke-width: 1.0;"/><path d="M88.7188,151.6094 Q88.1406,151.9063 87.5,152.0469 Q86.8594,152.2031 86.1563,152.2031 Q83.6563,152.2031 82.3281,150.5625 Q81.0156,148.9063 81.0156,145.7813 Q81.0156,142.6563 82.3281,141 Q83.6563,139.3438 86.1563,139.3438 Q86.8594,139.3438 87.5,139.5 Q88.1563,139.6563 88.7188,139.9531 L88.7188,142.6719 Q88.0938,142.0938 87.5,141.8281 Q86.9063,141.5469 86.2813,141.5469 Q84.9375,141.5469 84.25,142.625 Q83.5625,143.6875 83.5625,145.7813 Q83.5625,147.875 84.25,148.9531 Q84.9375,150.0156 86.2813,150.0156 Q86.9063,150.0156 87.5,149.75 Q88.0938,149.4688 88.7188,148.8906 L88.7188,151.6094 Z "/><text fill="#000000" font-family="sans-serif" font-size="14" lengthAdjust="spacingAndGlyphs" textLength="32" x="154.75" y="144.9951">View</text><text fill="#000000" font-family="sans-serif" font-size="10" lengthAdjust="spacingAndGlyphs" textLength="129" x="106.25" y="157.5791">fr.enac.sita.controbot.view</text><line style="stroke: #A80036; stroke-width: 1.5;" x1="7" x2="302" y1="164.9375" y2="164.9375"/><ellipse cx="17" cy="175.9375" fill="#84BE84" rx="3" ry="3" style="stroke: #038048; stroke-width: 1.0;"/><text fill="#000000" font-family="sans-serif" font-size="11" lengthAdjust="spacingAndGlyphs" textLength="100" x="26" y="179.1479">getName(): String</text><ellipse cx="17" cy="188.7422" fill="#84BE84" rx="3" ry="3" style="stroke: #038048; stroke-width: 1.0;"/><text fill="#000000" font-family="sans-serif" font-size="11" lengthAdjust="spacingAndGlyphs" textLength="103" x="26" y="191.9526">getScene(): Scene</text><ellipse cx="17" cy="201.5469" fill="#84BE84" rx="3" ry="3" style="stroke: #038048; stroke-width: 1.0;"/><text fill="#000000" font-family="sans-serif" font-size="11" lengthAdjust="spacingAndGlyphs" textLength="123" x="26" y="204.7573">setName(String): void</text><ellipse cx="17" cy="214.3516" fill="#84BE84" rx="3" ry="3" style="stroke: #038048; stroke-width: 1.0;"/><text fill="#000000" font-family="sans-serif" font-size="11" lengthAdjust="spacingAndGlyphs" textLength="98" x="26" y="217.562">start(Stage): void</text><ellipse cx="17" cy="227.1563" fill="#84BE84" rx="3" ry="3" style="stroke: #038048; stroke-width: 1.0;"/><text fill="#000000" font-family="sans-serif" font-size="11" lengthAdjust="spacingAndGlyphs" text-decoration="underline" textLength="127" x="26" y="230.3667">alertError(String): void</text><ellipse cx="17" cy="239.9609" fill="#84BE84" rx="3" ry="3" style="stroke: #038048; stroke-width: 1.0;"/><text fill="#000000" font-family="sans-serif" font-size="11" lengthAdjust="spacingAndGlyphs" textLength="118" x="26" y="243.1714">setTable(Table): void</text><ellipse cx="17" cy="252.7656" fill="#84BE84" rx="3" ry="3" style="stroke: #038048; stroke-width: 1.0;"/><text fill="#000000" font-family="sans-serif" font-size="11" lengthAdjust="spacingAndGlyphs" text-decoration="underline" textLength="271" x="26" y="255.9761">jsonGetDirectory(File, JsonObject, String): String</text><ellipse cx="17" cy="265.5703" fill="#84BE84" rx="3" ry="3" style="stroke: #038048; stroke-width: 1.0;"/><text fill="#000000" font-family="sans-serif" font-size="11" lengthAdjust="spacingAndGlyphs" text-decoration="underline" textLength="228" x="26" y="268.7808">jsonGetString(JsonObject, String): String</text><ellipse cx="17" cy="278.375" fill="#84BE84" rx="3" ry="3" style="stroke: #038048; stroke-width: 1.0;"/><text fill="#000000" font-family="sans-serif" font-size="11" lengthAdjust="spacingAndGlyphs" text-decoration="underline" textLength="224" x="26" y="281.5854">jsonGetArray(JsonObject, String): String</text><ellipse cx="17" cy="291.1797" fill="#84BE84" rx="3" ry="3" style="stroke: #038048; stroke-width: 1.0;"/><text fill="#000000" font-family="sans-serif" font-size="11" lengthAdjust="spacingAndGlyphs" textLength="133" x="26" y="294.3901">ivyConnect(String): void</text><ellipse cx="17" cy="303.9844" fill="#84BE84" rx="3" ry="3" style="stroke: #038048; stroke-width: 1.0;"/><text fill="#000000" font-family="sans-serif" font-size="11" lengthAdjust="spacingAndGlyphs" textLength="244" x="26" y="307.1948">mouseConnect(Accordion, StackPane): void</text><ellipse cx="17" cy="316.7891" fill="#84BE84" rx="3" ry="3" style="stroke: #038048; stroke-width: 1.0;"/><text fill="#000000" font-family="sans-serif" font-size="11" lengthAdjust="spacingAndGlyphs" textLength="158" x="26" y="319.9995">keyConnect(Accordion): void</text><ellipse cx="17" cy="329.5938" fill="#84BE84" rx="3" ry="3" style="stroke: #038048; stroke-width: 1.0;"/><text fill="#000000" font-family="sans-serif" font-size="11" lengthAdjust="spacingAndGlyphs" textLength="95" x="26" y="332.8042">getTable(): Table</text></a><!--MD5=[e3612552781b2b3849880f2b7cc3064d]
class javafx.application.Application--><rect fill="#FEFECE" filter="url(#f157janzn08gbu)" height="58.7422" id="javafx.application.Application" style="stroke: #A80036; stroke-width: 1.5;" width="123" x="93" y="8"/><ellipse cx="108.9" cy="26.9688" fill="#A9DCDF" rx="11" ry="11" style="stroke: #A80036; stroke-width: 1.0;"/><path d="M109.0094,22.3125 L107.8531,27.3906 L110.1813,27.3906 L109.0094,22.3125 Z M107.525,20.0781 L110.5094,20.0781 L113.8688,32.4688 L111.4156,32.4688 L110.65,29.4063 L107.3688,29.4063 L106.6188,32.4688 L104.1813,32.4688 L107.525,20.0781 Z "/><text fill="#000000" font-family="sans-serif" font-size="14" font-style="italic" lengthAdjust="spacingAndGlyphs" textLength="80" x="127.6" y="25.9951">Application</text><text fill="#000000" font-family="sans-serif" font-size="10" font-style="italic" lengthAdjust="spacingAndGlyphs" textLength="89" x="123.1" y="38.5791">javafx.application</text><line style="stroke: #A80036; stroke-width: 1.5;" x1="94" x2="215" y1="45.9375" y2="45.9375"/><ellipse cx="104" cy="56.9375" fill="#84BE84" rx="3" ry="3" style="stroke: #038048; stroke-width: 1.0;"/><text fill="#000000" font-family="sans-serif" font-size="11" font-style="italic" lengthAdjust="spacingAndGlyphs" textLength="97" x="113" y="60.1479">start(Stage): void</text><!--MD5=[1b778a6d1bc8b65b37f81c6ec7b796af]
reverse link javafx.application.Application to fr.enac.sita.controbot.view.View--><path d="M154.5,87.21 C154.5,99.36 154.5,112.85 154.5,126.59 " fill="none" id="javafx.application.Application&lt;-fr.enac.sita.controbot.view.View" style="stroke: #A80036; stroke-width: 1.0;"/><polygon fill="none" points="147.5,87.05,154.5,67.05,161.5,87.05,147.5,87.05" style="stroke: #A80036; stroke-width: 1.0;"/><text fill="#888888" font-family="sans-serif" font-size="10" lengthAdjust="spacingAndGlyphs" textLength="186" x="67.5" y="358.2822">UMLDoclet 2.0.9, PlantUML 1.2020.08</text><!--MD5=[c6d6d588aca7c8f91199a957087e97ff]
@startuml
    set namespaceSeparator none
    hide empty fields
    hide empty methods

    class "<size:14>View\n<size:10>fr.enac.sita.controbot.view" as fr.enac.sita.controbot.view.View [[View.html]] {
        +getName(): String
        +getScene(): Scene
        +setName(String): void
        +start(Stage): void
        {static} +alertError(String): void
        +setTable(Table): void
        {static} +jsonGetDirectory(File, JsonObject, String): String
        {static} +jsonGetString(JsonObject, String): String
        {static} +jsonGetArray(JsonObject, String): String
        +ivyConnect(String): void
        +mouseConnect(Accordion, StackPane): void
        +keyConnect(Accordion): void
        +getTable(): Table
    }

    abstract class "<size:14>Application\n<size:10>javafx.application" as javafx.application.Application {
        {abstract} +start(Stage): void
    }

    javafx.application.Application <|- - fr.enac.sita.controbot.view.View

    center footer UMLDoclet 2.0.9, PlantUML 1.2020.08
@enduml

PlantUML version 1.2020.08(Sun Apr 26 16:08:22 CEST 2020)
(APACHE source distribution)
Java Runtime: OpenJDK Runtime Environment
JVM: OpenJDK 64-Bit Server VM
Java Version: 13.0.2+8
Operating System: Linux
Default Encoding: UTF-8
Language: fr
Country: FR
--></g></svg>